<?xml version="1.0" encoding="UTF-8" standalone="no"?>
<!-- Created with Inkscape (http://www.inkscape.org/) -->

<svg
   width="550.15051mm"
   height="86.514458mm"
   viewBox="0 0 550.15051 86.514458"
   version="1.1"
   id="svg2688"
   inkscape:version="1.2.1 (9c6d41e4, 2022-07-14)"
   sodipodi:docname="overview.svg"
   inkscape:export-filename="overview.png"
   inkscape:export-xdpi="100"
   inkscape:export-ydpi="100"
   xmlns:inkscape="http://www.inkscape.org/namespaces/inkscape"
   xmlns:sodipodi="http://sodipodi.sourceforge.net/DTD/sodipodi-0.dtd"
   xmlns="http://www.w3.org/2000/svg"
   xmlns:svg="http://www.w3.org/2000/svg">
  <sodipodi:namedview
     id="namedview2690"
     pagecolor="#ffffff"
     bordercolor="#666666"
     borderopacity="1.0"
     inkscape:showpageshadow="2"
     inkscape:pageopacity="0.0"
     inkscape:pagecheckerboard="0"
     inkscape:deskcolor="#d1d1d1"
     inkscape:document-units="mm"
     showgrid="false"
     inkscape:zoom="0.42872086"
     inkscape:cx="1162.7612"
     inkscape:cy="465.33775"
     inkscape:window-width="1920"
     inkscape:window-height="987"
     inkscape:window-x="0"
     inkscape:window-y="23"
     inkscape:window-maximized="0"
     inkscape:current-layer="layer1" />
  <defs
     id="defs2685">
    <marker
       style="overflow:visible"
       id="TriangleStart"
       refX="0"
       refY="0"
       orient="auto-start-reverse"
       inkscape:stockid="TriangleStart"
       markerWidth="5.3244081"
       markerHeight="6.155385"
       viewBox="0 0 5.3244081 6.1553851"
       inkscape:isstock="true"
       inkscape:collect="always"
       preserveAspectRatio="xMidYMid">
      <path
         transform="scale(0.5)"
         style="fill:context-stroke;fill-rule:evenodd;stroke:context-stroke;stroke-width:1pt"
         d="M 5.77,0 -2.88,5 V -5 Z"
         id="path135" />
    </marker>
  </defs>
  <g
     inkscape:label="Ebene 1"
     inkscape:groupmode="layer"
     id="layer1"
     transform="translate(632.48203,58.358922)">
    <rect
       style="opacity:0.398305;fill:#ffeeaa;stroke:none;stroke-width:0.516313;stroke-linecap:round;stroke-linejoin:round;stroke-dasharray:none;stroke-dashoffset:0"
       id="rect2009"
       width="5.3491669"
       height="18.879412"
       x="-230.98756"
       y="-12.72044" />
    <rect
       style="opacity:0.398305;fill:#ffeeaa;stroke:none;stroke-width:0.788474;stroke-linecap:round;stroke-linejoin:round;stroke-dasharray:none;stroke-dashoffset:0"
       id="rect2063"
       width="12.474824"
       height="18.879412"
       x="-217.22914"
       y="-12.72044" />
    <rect
       style="opacity:0.398305;fill:#ffeeaa;stroke:none;stroke-width:0.634317;stroke-linecap:round;stroke-linejoin:round;stroke-dasharray:none;stroke-dashoffset:0"
       id="rect2074"
       width="8.0736828"
       height="18.879412"
       x="-202.41243"
       y="-12.72044" />
    <rect
       style="fill:#cccccc;stroke:none;stroke-width:0.206931;stroke-linecap:round;stroke-linejoin:round;stroke-dasharray:none"
       id="rect1567"
       width="25.372812"
       height="1.3257966"
       x="-402.44974"
       y="7.5234184"
       ry="0" />
    <rect
       style="fill:#cccccc;stroke:none;stroke-width:0.207398;stroke-linecap:round;stroke-linejoin:round;stroke-dasharray:none"
       id="rect1563"
       width="25.487364"
       height="1.3257966"
       x="-431.5538"
       y="0.8794058"
       ry="0" />
    <rect
       style="fill:#cccccc;stroke:none;stroke-width:0.273315;stroke-linecap:round;stroke-linejoin:round;stroke-dasharray:none"
       id="rect1559"
       width="44.263054"
       height="1.3257966"
       x="-431.58591"
       y="-13.206013"
       ry="0" />
    <rect
       style="fill:#cccccc;stroke:none;stroke-width:0.165729;stroke-linecap:round;stroke-linejoin:round;stroke-dasharray:none"
       id="rect1555"
       width="16.274687"
       height="1.3257966"
       x="-422.56296"
       y="-6.1078529"
       ry="0" />
    <text
       xml:space="preserve"
       style="font-weight:bold;font-size:10.5833px;line-height:1.25;font-family:sans-serif;-inkscape-font-specification:'sans-serif Bold';stroke-width:0.264583"
       x="-619.88049"
       y="-10.163975"
       id="text236"><tspan
         sodipodi:role="line"
         id="tspan234"
         style="font-style:normal;font-variant:normal;font-weight:bold;font-stretch:normal;font-family:Helvetica;-inkscape-font-specification:'Helvetica Bold';stroke-width:0.264583"
         x="-619.88049"
         y="-10.163975">Q9FJR0</tspan><tspan
         sodipodi:role="line"
         style="font-style:normal;font-variant:normal;font-weight:bold;font-stretch:normal;font-family:Helvetica;-inkscape-font-specification:'Helvetica Bold';stroke-width:0.264583"
         x="-619.88049"
         y="3.3610198"
         id="tspan240">Q9VYS3</tspan><tspan
         sodipodi:role="line"
         style="font-style:normal;font-variant:normal;font-weight:bold;font-stretch:normal;font-family:Helvetica;-inkscape-font-specification:'Helvetica Bold';stroke-width:0.264583"
         x="-619.88049"
         y="16.886015"
         id="tspan242">...</tspan></text>
    <text
       xml:space="preserve"
       style="font-weight:bold;font-size:10.5833px;line-height:1.25;font-family:sans-serif;-inkscape-font-specification:'sans-serif Bold';stroke-width:0.264583"
       x="-607.67822"
       y="-39.106136"
       id="text236-3"><tspan
         sodipodi:role="line"
         style="font-style:normal;font-variant:normal;font-weight:bold;font-stretch:normal;font-family:Helvetica;-inkscape-font-specification:'Helvetica Bold';stroke-width:0.264583"
         x="-607.67822"
         y="-39.106136"
         id="tspan242-3">IDs</tspan></text>
    <text
       xml:space="preserve"
       style="font-weight:bold;font-size:10.5833px;line-height:1.25;font-family:sans-serif;-inkscape-font-specification:'sans-serif Bold';stroke-width:0.264583"
       x="-530.86554"
       y="-41.147343"
       id="text236-3-6"><tspan
         sodipodi:role="line"
         style="font-style:normal;font-variant:normal;font-weight:bold;font-stretch:normal;font-family:Helvetica;-inkscape-font-specification:'Helvetica Bold';stroke-width:0.264583"
         x="-530.86554"
         y="-41.147343"
         id="tspan242-3-1">Sequences</tspan></text>
    <text
       xml:space="preserve"
       style="font-weight:bold;font-size:10.5833px;line-height:1.25;font-family:sans-serif;-inkscape-font-specification:'sans-serif Bold';stroke-width:0.264583"
       x="-417.21295"
       y="-39.111309"
       id="text236-3-6-0"><tspan
         sodipodi:role="line"
         style="font-style:normal;font-variant:normal;font-weight:bold;font-stretch:normal;font-family:Helvetica;-inkscape-font-specification:'Helvetica Bold';stroke-width:0.264583"
         x="-417.21295"
         y="-39.111309"
         id="tspan242-3-1-8">MSA</tspan></text>
    <text
       xml:space="preserve"
       style="font-weight:bold;font-size:10.5833px;line-height:1.05;font-family:sans-serif;-inkscape-font-specification:'sans-serif Bold';white-space:pre;inline-size:65.9547;display:inline;stroke-width:0.264583"
       x="522.38794"
       y="-108.52963"
       id="text236-3-6-0-3"
       transform="translate(-864.14062,58.01)"><tspan
         x="522.38794"
         y="-108.52963"
         id="tspan3354"><tspan
           style="font-family:Helvetica;-inkscape-font-specification:'Helvetica Bold';text-align:center;text-anchor:middle"
           id="tspan3352">Sliding </tspan></tspan><tspan
         x="522.38794"
         y="-97.1213"
         id="tspan3358"><tspan
           style="font-family:Helvetica;-inkscape-font-specification:'Helvetica Bold';text-align:center;text-anchor:middle"
           id="tspan3356">Window</tspan></tspan></text>
    <text
       xml:space="preserve"
       style="font-weight:bold;font-size:10.5833px;line-height:1.25;font-family:sans-serif;-inkscape-font-specification:'sans-serif Bold';stroke-width:0.264583"
       x="-238.33418"
       y="-39.111309"
       id="text236-3-6-0-3-2"><tspan
         sodipodi:role="line"
         style="font-style:normal;font-variant:normal;font-weight:bold;font-stretch:normal;font-family:Helvetica;-inkscape-font-specification:'Helvetica Bold';stroke-width:0.264583"
         x="-238.33418"
         y="-39.111309"
         id="tspan242-3-1-8-8-3">Threshold</tspan></text>
    <text
       xml:space="preserve"
       style="font-weight:bold;font-size:10.5833px;line-height:1.05;font-family:sans-serif;-inkscape-font-specification:'sans-serif Bold';white-space:pre;inline-size:83.4574;display:inline;stroke-width:0.264583"
       x="715.40906"
       y="-108.56838"
       id="text236-3-6-0-3-2-4"
       transform="translate(-872.68335,58.033246)"><tspan
         x="715.40906"
         y="-108.56838"
         id="tspan3362"><tspan
           style="font-family:Helvetica;-inkscape-font-specification:'Helvetica Bold';text-align:center;text-anchor:middle"
           id="tspan3360">Region </tspan></tspan><tspan
         x="715.40906"
         y="-97.16005"
         id="tspan3366"><tspan
           style="font-family:Helvetica;-inkscape-font-specification:'Helvetica Bold';text-align:center;text-anchor:middle"
           id="tspan3364">Coordinates</tspan></tspan></text>
    <path
       style="fill:none;stroke:#000000;stroke-width:0.878;stroke-linecap:butt;stroke-linejoin:miter;stroke-dasharray:none;stroke-opacity:1;marker-end:url(#TriangleStart)"
       d="m -563.35322,-3.949946 h 20.6387"
       id="path467" />
    <rect
       style="fill:none;stroke:#000000;stroke-width:0.878001;stroke-linecap:round;stroke-linejoin:round;stroke-dasharray:none"
       id="rect1384"
       width="65.477882"
       height="61.385513"
       x="-535.64502"
       y="-33.66898"
       ry="9.0941505" />
    <rect
       style="fill:none;stroke:#000000;stroke-width:0.878001;stroke-linecap:round;stroke-linejoin:round;stroke-dasharray:none"
       id="rect1490"
       width="65.477882"
       height="61.385513"
       x="-632.04303"
       y="-33.66898"
       ry="9.0941505" />
    <rect
       style="fill:#008000;stroke:none;stroke-width:0.566809;stroke-linecap:round;stroke-linejoin:round;stroke-dasharray:none"
       id="rect1529"
       width="45.554588"
       height="5.540328"
       x="-527.16119"
       y="-21.774815"
       ry="0" />
    <rect
       style="fill:#ff6600;stroke:none;stroke-width:0.566809;stroke-linecap:round;stroke-linejoin:round;stroke-dasharray:none"
       id="rect1531"
       width="45.554588"
       height="5.540328"
       x="-522.84143"
       y="-12.225956"
       ry="0" />
    <rect
       style="fill:#5500d4;stroke:none;stroke-width:0.566809;stroke-linecap:round;stroke-linejoin:round;stroke-dasharray:none"
       id="rect1533"
       width="45.554588"
       height="5.540328"
       x="-528.52527"
       y="-0.40356082"
       ry="0" />
    <rect
       style="fill:#c837ab;stroke:none;stroke-width:0.566809;stroke-linecap:round;stroke-linejoin:round;stroke-dasharray:none"
       id="rect1535"
       width="45.554588"
       height="5.540328"
       x="-520.34058"
       y="9.8273582"
       ry="0" />
    <path
       style="fill:none;stroke:#000000;stroke-width:0.878;stroke-linecap:butt;stroke-linejoin:miter;stroke-dasharray:none;stroke-opacity:1;marker-end:url(#TriangleStart)"
       d="m -465.5911,-3.949946 h 20.6387"
       id="path1539" />
    <rect
       style="fill:none;stroke:#000000;stroke-width:0.878001;stroke-linecap:round;stroke-linejoin:round;stroke-dasharray:none"
       id="rect1541"
       width="65.477882"
       height="61.385513"
       x="-437.8829"
       y="-33.66898"
       ry="9.0941505" />
    <rect
       style="fill:#008000;stroke:none;stroke-width:0.481772;stroke-linecap:round;stroke-linejoin:round;stroke-dasharray:none"
       id="rect1543"
       width="32.910995"
       height="5.540328"
       x="-429.02509"
       y="-15.333187"
       ry="0" />
    <rect
       style="fill:#ff6600;stroke:none;stroke-width:0.497742;stroke-linecap:round;stroke-linejoin:round;stroke-dasharray:none"
       id="rect1545"
       width="35.129169"
       height="5.540328"
       x="-412.04358"
       y="-8.2151222"
       ry="0" />
    <rect
       style="fill:#c837ab;stroke:none;stroke-width:0.566809;stroke-linecap:round;stroke-linejoin:round;stroke-dasharray:none"
       id="rect1549"
       width="45.554588"
       height="5.540328"
       x="-431.57297"
       y="5.2285271"
       ry="0" />
    <rect
       style="fill:#ff6600;stroke:none;stroke-width:0.321005;stroke-linecap:round;stroke-linejoin:round;stroke-dasharray:none"
       id="rect1553"
       width="14.611056"
       height="5.540328"
       x="-431.54657"
       y="-8.2151222"
       ry="0" />
    <rect
       style="fill:#008000;stroke:none;stroke-width:0.344428;stroke-linecap:round;stroke-linejoin:round;stroke-dasharray:none"
       id="rect1557"
       width="16.821108"
       height="5.540328"
       x="-393.7561"
       y="-15.333187"
       ry="0" />
    <rect
       style="fill:#5500d4;stroke:none;stroke-width:0.47323;stroke-linecap:round;stroke-linejoin:round;stroke-dasharray:none"
       id="rect1561"
       width="31.754419"
       height="5.540328"
       x="-408.69232"
       y="-1.4750483"
       ry="0" />
    <rect
       style="fill:#5500d4;stroke:none;stroke-width:0.197244;stroke-linecap:round;stroke-linejoin:round;stroke-dasharray:none"
       id="rect1547"
       width="5.5165391"
       height="5.540328"
       x="-422.44501"
       y="-1.4750483"
       ry="0" />
    <rect
       style="fill:#cccccc;stroke:none;stroke-width:0.206931;stroke-linecap:round;stroke-linejoin:round;stroke-dasharray:none"
       id="rect1605"
       width="25.372812"
       height="1.3257966"
       x="-306.06561"
       y="19.694256"
       ry="0" />
    <rect
       style="fill:#cccccc;stroke:none;stroke-width:0.207398;stroke-linecap:round;stroke-linejoin:round;stroke-dasharray:none"
       id="rect1607"
       width="25.487364"
       height="1.3257966"
       x="-335.16968"
       y="13.050243"
       ry="0" />
    <rect
       style="fill:#cccccc;stroke:none;stroke-width:0.273315;stroke-linecap:round;stroke-linejoin:round;stroke-dasharray:none"
       id="rect1609"
       width="44.263054"
       height="1.3257966"
       x="-335.20178"
       y="-1.0351832"
       ry="0" />
    <rect
       style="fill:#cccccc;stroke:none;stroke-width:0.165729;stroke-linecap:round;stroke-linejoin:round;stroke-dasharray:none"
       id="rect1611"
       width="16.274687"
       height="1.3257966"
       x="-326.17883"
       y="6.0629807"
       ry="0" />
    <path
       style="fill:none;stroke:#000000;stroke-width:0.878;stroke-linecap:butt;stroke-linejoin:miter;stroke-dasharray:none;stroke-opacity:1;marker-end:url(#TriangleStart)"
       d="m -369.20701,-3.949946 h 20.6387"
       id="path1613" />
    <rect
       style="fill:none;stroke:#000000;stroke-width:0.878001;stroke-linecap:round;stroke-linejoin:round;stroke-dasharray:none"
       id="rect1615"
       width="65.477882"
       height="61.385513"
       x="-341.49881"
       y="-33.66898"
       ry="9.0941505" />
    <rect
       style="fill:#008000;stroke:none;stroke-width:0.481772;stroke-linecap:round;stroke-linejoin:round;stroke-dasharray:none"
       id="rect1617"
       width="32.910995"
       height="5.540328"
       x="-332.64099"
       y="-3.1623576"
       ry="0" />
    <rect
       style="fill:#ff6600;stroke:none;stroke-width:0.497742;stroke-linecap:round;stroke-linejoin:round;stroke-dasharray:none"
       id="rect1619"
       width="35.129169"
       height="5.540328"
       x="-315.65948"
       y="3.9557111"
       ry="0" />
    <rect
       style="fill:#c837ab;stroke:none;stroke-width:0.566809;stroke-linecap:round;stroke-linejoin:round;stroke-dasharray:none"
       id="rect1621"
       width="45.554588"
       height="5.540328"
       x="-335.18884"
       y="17.399364"
       ry="0" />
    <rect
       style="fill:#ff6600;stroke:none;stroke-width:0.321005;stroke-linecap:round;stroke-linejoin:round;stroke-dasharray:none"
       id="rect1623"
       width="14.611056"
       height="5.540328"
       x="-335.16248"
       y="3.9557111"
       ry="0" />
    <rect
       style="fill:#008000;stroke:none;stroke-width:0.344428;stroke-linecap:round;stroke-linejoin:round;stroke-dasharray:none"
       id="rect1625"
       width="16.821108"
       height="5.540328"
       x="-297.37201"
       y="-3.1623576"
       ry="0" />
    <rect
       style="fill:#5500d4;stroke:none;stroke-width:0.47323;stroke-linecap:round;stroke-linejoin:round;stroke-dasharray:none"
       id="rect1627"
       width="31.754419"
       height="5.540328"
       x="-312.30823"
       y="10.695789"
       ry="0" />
    <rect
       style="fill:#5500d4;stroke:none;stroke-width:0.197244;stroke-linecap:round;stroke-linejoin:round;stroke-dasharray:none"
       id="rect1629"
       width="5.5165391"
       height="5.540328"
       x="-326.06091"
       y="10.695789"
       ry="0" />
    <rect
       style="fill:none;stroke:#000000;stroke-width:0.252;stroke-linecap:round;stroke-linejoin:round;stroke-dasharray:none"
       id="rect1685"
       width="54.405632"
       height="19.008364"
       x="-335.17883"
       y="-26.021328" />
    <path
       style="fill:none;stroke:#0066ff;stroke-width:0.465;stroke-linecap:butt;stroke-linejoin:miter;stroke-dasharray:none;stroke-opacity:1"
       d="m -334.9076,-12.027444 1.10648,-0.995847 1.60441,-2.655591 1.34403,-0.524967 1.49079,-0.312936 1.40796,0.230116 1.24232,-1.159505 0.41413,-3.064407 0.8282,-2.236187 0.99388,0.08282 0.0828,0.745395 1.15951,-0.49693 0.91104,0.745397 0.4141,0.911037 0.4141,2.484655 1.15951,7.039848 1.40798,0.828217 0.91104,-0.579752 1.07667,1.159504 0.16566,-1.159504 1.07667,-0.08282 0.41412,-1.076682 v -2.236187 l 0.33129,-1.541378 0.49691,-1.127268 1.52305,-1.223975 0.16563,-0.828218 0.41413,-0.745397 0.33128,-1.822077 1.19173,-2.070544 -0.14729,0.414107 0.74538,-0.248465 0.66257,0.248465 0.6626,-0.49693 1.07667,0.828217 0.49694,0.49693 0.33128,-1.076682 0.57976,0.41411 1.32514,-0.165645 0.33128,0.579752 0.99386,0.08282 0.91104,0.49693 0.74541,-0.828218 0.66257,0.993863 0.33128,1.076682 1.15951,2.898762 0.57976,1.822077 0.4141,-1.49079 0.4141,-0.993862 0.49694,-0.165643 0.0828,-0.579752 0.82823,-0.496932 0.82822,-1.9049 1.90489,-0.91104 1.57361,0.331288 0.99386,-0.248465 0.74541,0.579752 0.4141,0.662575 1.07669,3.892621 0.74539,0.49693 0.99385,0.745398 0.99388,-0.165645 0.66257,0.08282 0.0828,-0.331287 h 1.07669 l 0.99386,0.248465 1.15951,-0.414108 1.15948,1.159505 0.6626,1.490789"
       id="path1915"
       sodipodi:nodetypes="ccccccccccccccccccccccccccccccccccccccccccccccccccccccccccccccccccccc" />
    <path
       style="fill:none;stroke:#000000;stroke-width:0.878;stroke-linecap:butt;stroke-linejoin:miter;stroke-dasharray:none;stroke-opacity:1;marker-end:url(#TriangleStart)"
       d="m -272.91521,-3.949946 h 20.6387"
       id="path1927" />
    <rect
       style="fill:none;stroke:#000000;stroke-width:0.878001;stroke-linecap:round;stroke-linejoin:round;stroke-dasharray:none"
       id="rect1929"
       width="65.477882"
       height="61.385513"
       x="-245.73622"
       y="-33.66898"
       ry="9.0941505" />
    <rect
       style="fill:none;stroke:#000000;stroke-width:0.252;stroke-linecap:round;stroke-linejoin:round;stroke-dasharray:none"
       id="rect1945"
       width="54.405632"
       height="19.008364"
       x="-239.41621"
       y="-12.792164" />
    <path
       style="fill:none;stroke:#0066ff;stroke-width:0.465;stroke-linecap:butt;stroke-linejoin:miter;stroke-dasharray:none;stroke-opacity:1"
       d="m -239.14497,1.201725 1.10648,-0.995847 1.60441,-2.655591 1.34403,-0.524967 1.49079,-0.312936 1.40796,0.230116 1.24232,-1.159505 0.41413,-3.064407 0.8282,-2.236187 0.99388,0.08282 0.0828,0.745395 1.15951,-0.49693 0.91104,0.745397 0.4141,0.911037 0.4141,2.484655 1.15951,7.039848 1.40798,0.828217 0.91104,-0.579752 1.07667,1.159504 0.16566,-1.159504 1.07667,-0.08282 0.41412,-1.076682 v -2.236187 l 0.33129,-1.541378 0.49691,-1.127268 1.52305,-1.223975 0.16563,-0.828218 0.41413,-0.745397 0.33128,-1.822077 1.19173,-2.070544 -0.14729,0.414107 0.74538,-0.248465 0.66257,0.248465 0.6626,-0.49693 1.07667,0.828217 0.49694,0.49693 0.33128,-1.076682 0.57976,0.41411 1.32514,-0.165645 0.33128,0.579752 0.99386,0.08282 0.91104,0.49693 0.74541,-0.828218 0.66257,0.993863 0.33128,1.076682 1.15951,2.898762 0.57976,1.822077 0.4141,-1.49079 0.4141,-0.993862 0.49694,-0.165643 0.0828,-0.579752 0.82823,-0.496932 0.82822,-1.9049 1.90489,-0.91104 1.57361,0.331288 0.99386,-0.248465 0.74541,0.579752 0.4141,0.662575 1.07669,3.892621 0.74539,0.49693 0.99385,0.745398 0.99388,-0.165645 0.66257,0.08282 0.0828,-0.331287 h 1.07669 l 0.99386,0.248465 1.15951,-0.414108 1.15948,1.159505 0.6626,1.490789"
       id="path1947"
       sodipodi:nodetypes="ccccccccccccccccccccccccccccccccccccccccccccccccccccccccccccccccccccc" />
    <path
       style="fill:none;stroke:#ff0000;stroke-width:0.465;stroke-linecap:butt;stroke-linejoin:miter;stroke-dasharray:none;stroke-dashoffset:0;stroke-opacity:1"
       d="m -239.26052,-5.663632 h 54.40302"
       id="path1955"
       sodipodi:nodetypes="cc" />
    <path
       style="fill:none;stroke:#000000;stroke-width:0.878;stroke-linecap:butt;stroke-linejoin:miter;stroke-dasharray:none;stroke-opacity:1;marker-end:url(#TriangleStart)"
       d="m -175.95657,-3.949946 h 20.6387"
       id="path2131" />
    <rect
       style="fill:none;stroke:#000000;stroke-width:0.878001;stroke-linecap:round;stroke-linejoin:round;stroke-dasharray:none"
       id="rect2133"
       width="65.477882"
       height="61.385513"
       x="-148.24843"
       y="-33.66898"
       ry="9.0941505" />
    <text
       xml:space="preserve"
       style="font-weight:bold;font-size:10.5833px;line-height:1.25;font-family:sans-serif;-inkscape-font-specification:'sans-serif Bold';stroke-width:0.264583"
       x="-139.13338"
       y="-9.3169899"
       id="text236-7"><tspan
         sodipodi:role="line"
         id="tspan234-5"
         style="font-style:normal;font-variant:normal;font-weight:bold;font-stretch:normal;font-family:Helvetica;-inkscape-font-specification:'Helvetica Bold';stroke-width:0.264583"
         x="-139.13338"
         y="-9.3169899">120    188</tspan><tspan
         sodipodi:role="line"
         style="font-style:normal;font-variant:normal;font-weight:bold;font-stretch:normal;font-family:Helvetica;-inkscape-font-specification:'Helvetica Bold';stroke-width:0.264583"
         x="-139.13338"
         y="4.2080045"
         id="tspan2172">343    651</tspan><tspan
         sodipodi:role="line"
         style="font-style:normal;font-variant:normal;font-weight:bold;font-stretch:normal;font-family:Helvetica;-inkscape-font-specification:'Helvetica Bold';stroke-width:0.264583"
         x="-139.13338"
         y="17.733"
         id="tspan242-5">...</tspan></text>
  </g>
</svg>
