model	chain	pos	name	variance
0	A	1	MET	0.23619550987945784
0	A	2	SER	0.6907517079427591
0	A	3	GLY	0.14429294109457566
0	A	4	PRO	0.09407230533656546
0	A	5	SER	0.08410509170981856
0	A	6	GLN	0.3721228094591585
0	A	7	ASP	0.10823044422520305
0	A	8	SER	0.19671162937696007
0	A	9	GLU	0.3270678256563274
0	A	10	PRO	0.15979897454411882
0	A	11	GLU	0.1423964860211306
0	A	12	ALA	0.2039228621112059
0	A	13	LYS	0.11269369172960406
0	A	14	VAL	0.08297958740172601
0	A	15	LEU	0.11738958926781076
0	A	16	HIS	0.23245873297878067
0	A	17	ILE	0.05247232389367187
0	A	18	LYS	0.46042659117558266
0	A	19	ARG	0.17674984270748584
0	A	20	LEU	0.13132120021418148
0	A	21	TYR	0.4009877110809546
0	A	22	ARG	0.09242125113585527
0	A	23	ALA	0.11494624142400409
0	A	24	VAL	0.1367648795678653
0	A	25	VAL	0.12165885091307284
0	A	26	GLU	0.09172540154515581
0	A	27	THR	0.11765069647194176
0	A	28	VAL	0.14163933107240098
0	A	29	HIS	0.04337474809235034
0	A	30	LYS	0.15175891616881812
0	A	31	LEU	0.041880092219796716
0	A	32	ASP	0.09948905804280866
0	A	33	ILE	1.0
0	A	34	ILE	0.0587193060998918
0	A	35	ILE	0.12513413006240015
0	A	36	SER	0.47282707758342274
0	A	37	GLY	0.10889360395815122
0	A	38	LYS	0.17604341667588655
0	A	39	SER	0.07971776869582925
0	A	40	SER	0.07635868789944193
0	A	41	TYR	0.08929070907214541
0	A	42	ARG	0.2602974876160273
0	A	43	GLU	0.18420077643613725
0	A	44	VAL	0.10796404880062212
0	A	45	PHE	0.2958327879612649
0	A	46	LYS	0.06759675576673664
0	A	47	PRO	0.4655257445502538
0	A	48	GLU	0.20929001532065433
0	A	49	ASN	0.12597516822054197
0	A	50	ILE	0.17803241032954004
0	A	51	SER	0.285567074873014
0	A	52	LEU	0.21150420694496455
0	A	53	ARG	0.13823988141551322
0	A	54	ASN	0.19677369471876752
0	A	55	LYS	0.08902436642421568
0	A	56	LEU	0.6268252080862073
0	A	57	ARG	0.6992042052918325
0	A	58	GLU	0.2674230744007109
0	A	59	LEU	0.05457762145356773
0	A	60	CYS	0.07167620090830433
0	A	61	VAL	0.07579304358491007
0	A	62	LYS	0.3590728324710302
0	A	63	LEU	0.27744257385579846
0	A	64	MET	0.06378274023703297
0	A	65	PHE	0.14194139295786068
0	A	66	LEU	0.1483776533459328
0	A	67	HIS	0.11444466268636001
0	A	68	PRO	0.07567090258104534
0	A	69	VAL	0.09339582477685522
0	A	70	ASP	0.06338824532466718
0	A	71	TYR	0.05337471490882997
0	A	72	GLY	0.6922886906895726
0	A	73	ARG	0.00418366849244355
0	A	74	LYS	0.06107612662406134
0	A	75	ALA	0.09906367823416252
0	A	76	GLU	0.5514390817380309
0	A	77	GLU	0.030348338517813954
0	A	78	LEU	0.06721821523602764
0	A	79	LEU	0.05396630950275529
0	A	80	TRP	0.1708918349759165
0	A	81	ARG	0.09338178618763687
0	A	82	LYS	0.024763481622178733
0	A	83	VAL	0.11759272659826721
0	A	84	TYR	0.039609495549519945
0	A	85	TYR	0.016868800490848438
0	A	86	GLU	0.07934968849738747
0	A	87	VAL	0.17231089357329585
0	A	88	ILE	0.20686720814949344
0	A	89	GLN	0.038433222741808645
0	A	90	VAL	0.06376683863202737
0	A	91	ILE	0.10148428989663362
0	A	92	LYS	0.00048015457096426637
0	A	93	THR	0.48083869989905864
0	A	94	ASN	0.005478218723297906
0	A	95	LYS	0.05310320014908296
0	A	96	LYS	0.12000879946873538
0	A	97	HIS	0.08713701004543697
0	A	98	ILE	0.07799130193822397
0	A	99	HIS	0.37650137154904917
0	A	100	SER	0.14106115230320987
0	A	101	ARG	0.06621683105621971
0	A	102	SER	0.12739669676519733
0	A	103	ALA	0.043541931329178975
0	A	104	LEU	0.3373786100047003
0	A	105	GLU	0.05956800215012229
0	A	106	CYS	0.3349777368097768
0	A	107	ALA	0.0953018640901576
0	A	108	TYR	0.050026685543203255
0	A	109	ARG	0.07317756469322506
0	A	110	THR	0.4496038310892799
0	A	111	HIS	0.44449716231947833
0	A	112	LEU	0.0546113773996732
0	A	113	ILE	0.32464073302108937
0	A	114	ALA	0.3774020367677131
0	A	115	GLY	0.07841756311694509
0	A	116	VAL	0.31416986653430634
0	A	117	GLY	0.05534812889505017
0	A	118	PHE	0.06344836320804545
0	A	119	PHE	0.07310679648163529
0	A	120	GLN	0.07231766943761062
0	A	121	HIS	0.10298033907277884
0	A	122	LEU	0.9390626430032717
0	A	123	LEU	0.20724306234865653
0	A	124	LEU	0.13587112809050808
0	A	125	TYR	0.5498206962844115
0	A	126	ILE	0.006110725447376906
0	A	127	GLN	0.4154965613721251
0	A	128	SER	0.4365434254348751
0	A	129	HIS	0.13924335555070855
0	A	130	TYR	0.05305086682175622
0	A	131	GLN	0.1270726164608583
0	A	132	LEU	0.07814730444149656
0	A	133	GLU	0.2862903049903544
0	A	134	LEU	0.10201230973652728
0	A	135	GLN	0.25684382578303017
0	A	136	ASP	0.1906042308578254
0	A	137	CYS	0.03765507060240035
0	A	138	ILE	0.05281651210211687
0	A	139	ASP	0.0635230632801494
0	A	140	TRP	0.2716374377733981
0	A	141	THR	0.2712140845881579
0	A	142	HIS	0.19369272048586167
0	A	143	VAL	0.21892112084425447
0	A	144	THR	0.12783874344029142
0	A	145	ASP	0.027830280046573105
0	A	146	PRO	0.062306730355347166
0	A	147	LEU	0.7003218881002177
0	A	148	ILE	0.042512892184143926
0	A	149	GLY	0.08411524593750883
0	A	150	ARG	0.2508776998038191
0	A	151	LYS	0.15019000354803064
0	A	152	LYS	0.38413046869681067
0	A	153	PRO	0.04676400657789199
0	A	154	VAL	0.020942314856237893
0	A	155	SER	0.2505763873468064
0	A	156	ALA	0.23478291114418498
0	A	157	THR	0.564372190109749
0	A	158	SER	0.09081242881143274
0	A	159	LYS	0.06165122323682254
0	A	160	GLU	0.3050252984027592
0	A	161	MET	0.03202375442071659
0	A	162	GLU	0.07821429384486064
0	A	163	TRP	0.029491401393499088
0	A	164	ALA	0.1138530680924347
0	A	165	GLN	0.16109933845295657
0	A	166	MET	0.010819361290058095
0	A	167	ALA	0.035249864444413595
0	A	168	CYS	0.43985070594811276
0	A	169	HIS	0.04654934282681416
0	A	170	ARG	0.078052512298282
0	A	171	CYS	0.05890992480868438
0	A	172	LEU	0.019968249190505705
0	A	173	VAL	0.0238003262096652
0	A	174	TYR	0.13744904440798977
0	A	175	LEU	0.09901120768754268
0	A	176	GLY	0.2543947147289128
0	A	177	ASP	0.11516971887583179
0	A	178	LEU	0.04123195272177915
0	A	179	ALA	0.6057159831324032
0	A	180	ARG	0.015845766009303305
0	A	181	TYR	0.18384586401216904
0	A	182	GLN	0.0846750267660927
0	A	183	ASN	0.09807226884143079
0	A	184	GLU	0.08302867496500416
0	A	185	LEU	0.07885939340776928
0	A	186	ALA	0.09566593854077354
0	A	187	GLY	0.24282584056931078
0	A	188	VAL	0.1098860161072557
0	A	189	GLU	0.07076839500873344
0	A	190	ALA	0.42596238241105366
0	A	191	GLU	0.1307180053123231
0	A	192	GLN	0.09000306719933923
0	A	193	LEU	0.07918334704814542
0	A	194	ALA	0.4105412560379559
0	A	195	GLU	0.39240504539936943
0	A	196	ARG	0.10801860930262937
0	A	197	PHE	0.5936410653304658
0	A	198	TYR	0.04958036923702735
0	A	199	HIS	0.09253581869027326
0	A	200	GLN	0.08552236645638744
0	A	201	ALA	0.7742264682959977
0	A	202	LEU	0.548515973024185
0	A	203	SER	0.10080846376739822
0	A	204	VAL	0.07307370024366978
0	A	205	ALA	0.43354431834330576
0	A	206	PRO	0.06713228429254903
0	A	207	HIS	0.06467070211575386
0	A	208	VAL	0.059854859082372217
0	A	209	GLY	0.22769735017176898
0	A	210	MET	0.20990902210721127
0	A	211	PRO	0.08516732736845638
0	A	212	PHE	0.2165540458167574
0	A	213	ASN	0.07932551679113933
0	A	214	GLN	0.08676600074285376
0	A	215	LEU	0.026171797532206963
0	A	216	GLY	0.23857077584322064
0	A	217	THR	0.5175426652977375
0	A	218	LEU	0.06103824354383228
0	A	219	ALA	0.4491745669191057
0	A	220	GLY	0.3420316529021352
0	A	221	SER	0.1145179800102026
0	A	222	LYS	0.2163492301887929
0	A	223	PHE	0.10371031404614214
0	A	224	TYR	0.09311603463820055
0	A	225	ASN	0.061966722057676955
0	A	226	VAL	0.007087369252520057
0	A	227	GLU	0.01382724118047265
0	A	228	ALA	0.011943247993791456
0	A	229	THR	0.060947451870778435
0	A	230	TYR	0.12718566404772183
0	A	231	TYR	0.18529821412112332
0	A	232	TYR	0.22754731670774675
0	A	233	LEU	0.15728946589037185
0	A	234	ARG	0.370809050836247
0	A	235	CYS	0.044970265423006146
0	A	236	ILE	0.02530717612747784
0	A	237	GLN	0.05784366756922535
0	A	238	SER	0.011257734710228886
0	A	239	GLU	0.16888417949839984
0	A	240	THR	0.06346642865575011
0	A	241	PRO	0.31900674106318994
0	A	242	PHE	0.01830239773621621
0	A	243	ASP	0.07222624444474242
0	A	244	GLY	0.04504936179015478
0	A	245	ALA	0.17090185198431365
0	A	246	TYR	0.11687094256116964
0	A	247	GLY	0.06789436330283534
0	A	248	ASN	0.06420634147253378
0	A	249	LEU	0.007792057612878701
0	A	250	LYS	0.014698768410010872
0	A	251	ARG	0.0558289400204483
0	A	252	LEU	0.21666694562899758
0	A	253	PHE	0.02758769480817961
0	A	254	ASP	0.19055122198936336
0	A	255	LYS	0.003927636093179184
0	A	256	ALA	0.009175532212896742
0	A	257	SER	0.32347952003079705
0	A	258	LYS	0.03734795271375598
0	A	259	MET	0.026618633688397158
0	A	260	TYR	0.02157308160009775
0	A	261	HIS	0.01939209044763917
0	A	262	GLN	0.045917537702342005
0	A	263	VAL	0.05045894214950034
0	A	264	LYS	0.0400875121512372
0	A	265	LYS	0.15290289230482956
0	A	266	GLN	0.05619373751118565
0	A	267	GLU	0.03921637546891784
0	A	268	MET	0.18359808819013035
0	A	269	LYS	0.10699695888876187
0	A	270	LYS	0.05969960600754661
0	A	271	LEU	0.05716829004152513
0	A	272	SER	0.14444784056583823
0	A	273	PRO	0.10041656546627133
0	A	274	SER	0.5362090068422656
0	A	275	ARG	0.15840293712199152
0	A	276	GLN	0.06155816216776723
0	A	277	ARG	0.03197434755869871
0	A	278	SER	0.016253307309844933
0	A	279	LYS	0.06304301213852849
0	A	280	ASP	0.0353389830976245
0	A	281	ILE	0.006815597866306598
0	A	282	LYS	0.07739584409343105
0	A	283	ARG	0.01719612260098722
0	A	284	LEU	0.05126981845148321
0	A	285	LEU	0.06579529866544583
0	A	286	VAL	0.09814741223740478
0	A	287	SER	0.05733220376481212
0	A	288	PHE	0.0820394610809622
0	A	289	MET	0.004496424246852018
0	A	290	TYR	0.2924031078385716
0	A	291	LEU	0.049891952030362965
0	A	292	GLN	0.0005678920427206455
0	A	293	SER	0.025657336014005754
0	A	294	LEU	0.04682870547459413
0	A	295	LEU	0.08627446540193244
0	A	296	GLN	0.032351729641913934
0	A	297	PRO	0.05945416819115593
0	A	298	LYS	0.1812092691823402
0	A	299	ASN	0.027236445083804482
0	A	300	SER	0.03724783540643566
0	A	301	LEU	0.06767193082870135
0	A	302	MET	0.31797848301259257
0	A	303	GLU	0.1665013136968647
0	A	304	THR	0.024779462392161118
0	A	305	GLU	0.05170123590902626
0	A	306	LEU	0.0431141422664057
0	A	307	THR	0.06106977759292236
0	A	308	SER	0.05757454359177755
0	A	309	LEU	0.02121216715147221
0	A	310	CYS	0.05511083451593916
0	A	311	GLN	0.028496368883662693
0	A	312	SER	0.04770593258246161
0	A	313	VAL	0.009010010780872662
0	A	314	LEU	0.07246525934268244
0	A	315	GLU	0.06082839302334359
0	A	316	ASP	0.10197540830201049
0	A	317	PHE	0.16396084625952567
0	A	318	ASN	0.022949482149731002
0	A	319	LEU	0.009557082991848367
0	A	320	VAL	0.05250668149360098
0	A	321	LEU	0.2342995614618643
0	A	322	PHE	0.09197211127884033
0	A	323	TYR	0.0008910784425300194
0	A	324	LEU	0.009361048738934863
0	A	325	PRO	0.19122425095608533
0	A	326	LEU	0.11069067004206246
0	A	327	PRO	0.06904915865234211
0	A	328	ALA	0.05243316889614897
0	A	329	HIS	0.015488551203926662
0	A	330	GLY	0.09596785265160991
0	A	331	SER	0.22014902241099904
0	A	332	GLN	0.10558557401646655
0	A	333	SER	0.08770621678392461
0	A	334	ALA	0.07238779905172091
0	A	335	SER	0.1737564566049062
0	A	336	GLU	0.07854961029823947
0	A	337	GLU	0.03363763802598888
0	A	338	GLU	0.08615773400481538
0	A	339	GLU	0.04850717186793595
0	A	340	GLU	0.24415997097958425
0	A	341	HIS	0.11034231247817292
0	A	342	ASP	0.01616172398702314
0	A	343	SER	0.09294820488739476
0	A	344	VAL	0.08190092764923575
0	A	345	GLY	0.10013482259152237
0	A	346	SER	0.02844723382139848
0	A	347	VAL	0.05915744730279733
0	A	348	LEU	0.054758972582410144
0	A	349	PRO	0.11761155730741422
0	A	350	ASP	0.09206357321536437
0	A	351	SER	0.03823565598688602
0	A	352	LEU	0.09525465009799695
0	A	353	ILE	0.085052036773917
0	A	354	PHE	0.03389491100641044
0	A	355	LYS	0.026539801204504512
0	A	356	MET	0.09128172934920485
0	A	357	VAL	0.11759091108146603
0	A	358	VAL	0.11397352552112626
0	A	359	ILE	0.029141096371180383
0	A	360	CYS	0.13379887399192653
0	A	361	LEU	0.1567400187300923
0	A	362	MET	0.09826244422635332
0	A	363	VAL	0.02473242520178198
0	A	364	VAL	0.10035957723830903
0	A	365	HIS	0.023309323912920968
0	A	366	SER	0.04737009891790107
0	A	367	LEU	0.09961908915602732
0	A	368	LYS	0.09660745288746383
0	A	369	ARG	0.13325481005006906
0	A	370	GLY	0.09238506746379475
0	A	371	ALA	0.01751480253449253
0	A	372	SER	0.0007685395521933708
0	A	373	LYS	0.018857720257190253
0	A	374	GLN	0.056306832597035256
0	A	375	TYR	0.012307182586281733
0	A	376	SER	0.12016272784961594
0	A	377	ALA	0.0737029457005589
0	A	378	SER	0.04996376521964644
0	A	379	ILE	0.06634746910092713
0	A	380	ALA	0.0
0	A	381	PHE	0.06232080588822135
0	A	382	THR	0.06152344568660998
0	A	383	LEU	0.0237786297283582
0	A	384	ALA	0.03320479823769607
0	A	385	LEU	0.045442009519728675
0	A	386	PHE	0.041451081377548236
0	A	387	SER	0.042104279517583006
0	A	388	HIS	0.049407694589641685
0	A	389	LEU	0.1349450878579487
0	A	390	VAL	0.054233237971513304
0	A	391	ASN	0.11326170571577465
0	A	392	HIS	0.14939341388552674
0	A	393	VAL	0.0668580304246049
0	A	394	ASN	0.041629331878132836
0	A	395	ILE	0.027029513112126983
0	A	396	ARG	0.13761928077409014
0	A	397	LEU	0.045166219851234715
0	A	398	GLN	0.07064004219302283
0	A	399	ALA	0.040405496752363
0	A	400	GLU	0.08232121978870652
0	A	401	LEU	0.1945678418053464
0	A	402	GLU	0.15487588407784017
0	A	403	GLU	0.07516298536759254
0	A	404	GLY	0.05573412148890815
0	A	405	GLU	0.03250214573665735
0	A	406	SER	0.012198222551053396
0	A	407	ASP	0.07513396876476454
0	A	408	VAL	0.14050198368377986
0	A	409	PRO	0.11563657057698835
0	A	410	ALA	0.1660724400739093
0	A	411	LEU	0.04235564679073565
0	A	412	ARG	0.04370668947888512
0	A	413	THR	0.10647485003380225
0	A	414	ASP	0.13770771333083548
0	A	415	ASN	0.0879823653336467
0	A	416	THR	0.144825753054398
0	A	417	ASP	0.18021962252975846
0	A	418	ASP	0.1747433483162955
0	A	419	ALA	0.2657052155149158
0	A	420	ASP	0.20997085523175343
0	A	421	ALA	0.2445752176712006
0	A	422	ARG	0.14308621352029124
0	A	423	ASP	0.10502372434315574
0	A	424	HIS	0.18308858239947653
0	A	425	SER	0.11554259647186735
0	A	426	SER	0.12548795528735368
0	A	427	ALA	0.09891332811023311
0	A	428	ALA	0.06458972162215751
0	A	429	LEU	0.1926785010244827
0	A	430	SER	0.07748075116987645
0	A	431	GLU	0.10108620617198645
0	A	432	GLU	0.12783899676821714
0	A	433	ARG	0.05314008047293928
0	A	434	THR	0.03635140023636512
0	A	435	LEU	0.06550918060631265
0	A	436	GLN	0.14215246789665714
0	A	437	ASN	0.06713004656253829
0	A	438	GLY	0.1838486717300127
0	A	439	SER	0.16624637080559346
0	A	440	LEU	2.4161207088109493e-05
0	A	441	GLU	0.20165574606107553
0	A	442	GLU	0.15627883524127426
0	A	443	ASP	0.13337506692748607
0	A	444	ASP	0.09794103442056484
0	A	445	ASP	0.13527873129148457
0	A	446	GLU	0.04501909965835854
0	A	447	GLU	0.008994090704039151
0	A	448	GLU	0.21426611465539505
0	A	449	GLU	3.055908992891761e-06
0	A	450	GLU	0.23095432398108587
0	A	451	LYS	0.02227965672573668
0	A	452	GLU	1.434920170695849e-05
0	A	453	ASN	0.11065332528367561
0	A	454	GLY	0.1505817118532132
0	A	455	GLU	0.1454653532902519
0	A	456	ASP	0.11345973426639525
0	A	457	GLU	0.08321854424534973
0	A	458	PRO	0.2847553277562864
0	A	459	LYS	0.0038254723712087143
0	A	460	GLY	0.12881433039299434
0	A	461	ASN	0.23242303485191115
0	A	462	GLY	0.14503609967540793
0	A	463	ARG	0.09956798024700834
0	A	464	THR	0.15894423556732631
0	A	465	VAL	3.5775026153108896e-05
0	A	466	ALA	0.09973491279474381
0	A	467	THR	0.135998172045269
0	A	468	LYS	0.12759180148934163
0	A	469	LYS	0.13330161238435037
0	A	470	ASN	0.21202264254500086
0	A	471	GLN	0.16584693599867567
0	A	472	GLU	0.14012700557702665
0	A	473	LYS	0.027431723970897732
0	A	474	LYS	0.18832335065706296
0	A	475	ARG	0.16858617085975203
0	A	476	SER	0.002086005569924409
0	A	477	ALA	0.16481551134900652
0	A	478	GLU	0.2519955303868276
0	A	479	GLU	0.0058522544369731784
0	A	480	LYS	0.04183569913964254
0	A	481	GLN	0.294616117265895
0	A	482	LYS	0.13476934160946338
0	A	483	GLN	0.1538605140854651
0	A	484	LYS	0.08649477625468834
0	A	485	ARG	0.053632259689005195
0	A	486	LYS	0.18160184302460242
0	A	487	PHE	0.1329026420119631
0	A	488	SER	0.004759660988858816
0	A	489	ARG	0.1530796940863388
0	A	490	LEU	0.1205784811970838
0	A	491	SER	0.021728932370498156
0	A	492	MET	0.08362196368943288
0	A	493	LEU	0.061964273221061426
0	A	494	ARG	0.1209167478652645
0	A	495	ARG	0.17066119045485628
0	A	496	ARG	0.07253152570592514
0	A	497	ARG	0.1927740267631489
0	A	498	CYS	0.1517988680937741
0	A	499	ALA	0.1435364827976418
0	A	500	HIS	0.12019352830325439
0	A	501	LYS	0.20625939001299023
0	A	502	GLU	0.06246554057646343
0	A	503	ASP	0.12741331085499408
0	A	504	GLU	0.07039653072440084
0	A	505	SER	0.07854735145756825
0	A	506	ASP	0.03611057246045648
0	A	507	LEU	0.06607278774210831
0	A	508	SER	0.08750733852921974
0	A	509	GLU	0.08426010728971377
0	A	510	GLY	0.03669454610594898
0	A	511	PHE	0.04378227883756172
0	A	512	GLU	0.08803480949194095
0	A	513	SER	0.024540555686356044
0	A	514	ASP	0.01367276788066848
0	A	515	GLU	0.08803907384535765
0	A	516	GLU	0.12020360864363297
0	A	517	GLU	0.06121620641166786
0	A	518	GLU	0.023211267533829887
0	A	519	GLU	0.0811363998023339
0	A	520	GLU	0.10176336227283202
0	A	521	GLU	0.08381440847035687
0	A	522	GLU	0.0684206679015651
0	A	523	GLY	0.008418907009803476
0	A	524	GLY	0.03811163349540612
0	A	525	GLY	0.09192014738807197
0	A	526	GLY	0.007301001220066991
0	A	527	GLY	0.12522411425269067
0	A	528	LEU	0.007014401573991654
0	A	529	VAL	0.06366500080587804
0	A	530	ASP	0.14744862595491567
0	A	531	GLY	0.06761188683263475
0	A	532	LEU	0.06899635561281972
0	A	533	GLY	0.2563234691128903
0	A	534	ALA	0.21165468373285684
0	A	535	PRO	0.029107522504521543
0	A	536	ARG	0.29931904465404113
0	A	537	VAL	0.1555287629191352
0	A	538	GLN	0.04828143557543703
0	A	539	MET	0.413402763844525
0	A	540	ASN	0.040586444139823756
0	A	541	SER	0.09892209958966201
0	A	542	LEU	0.065397626598678
0	A	543	GLY	0.24752957016255508
0	A	544	ARG	0.0445759657842498
0	A	545	ASP	0.17767897565180538
0	A	546	THR	0.0853944569645469
0	A	547	ARG	0.13134064313248237
0	A	548	LYS	0.11623746441685455
0	A	549	GLY	0.1189673050340179
0	A	550	PRO	0.16929893008949493
0	A	551	LEU	0.18117656876925867
0	A	552	PRO	0.21321630262044894
0	A	553	GLU	0.060824133947592014
0	A	554	ASP	0.10017566116421844
0	A	555	GLY	0.205498857358584
0	A	556	GLY	0.1321715165076037
0	A	557	TRP	0.124864726368701
0	A	558	GLU	0.19010304266740022
0	A	559	SER	0.22488655017166975
0	A	560	GLY	0.08170417101590899
0	A	561	SER	0.11855523549680358
0	A	562	GLU	0.11219886840331317
0	A	563	GLU	0.10601423653281714
0	A	564	ASP	0.0965025012388939
0	A	565	GLU	0.13325791331715942
0	A	566	GLY	0.17154427049334148
0	A	567	GLY	0.19818293685902424
0	A	568	THR	0.10773763696698789
0	A	569	ALA	0.03972745928144245
0	A	570	PHE	0.0984245318775089
0	A	571	ASP	0.07799979897906664
0	A	572	VAL	0.07449917648183464
0	A	573	GLU	0.09734075278985253
0	A	574	THR	0.05231652194167382
0	A	575	ASP	0.09062743609365775
0	A	576	SER	0.03914694778426846
0	A	577	ASP	0.037814369007540184
0	A	578	MET	0.0927259729645353
0	A	579	ASN	0.065590424983165
0	A	580	SER	0.05598583444912613
0	A	581	GLN	0.049739416953073996
0	A	582	GLU	0.09182423110218692
0	A	583	SER	0.08137238004283011
0	A	584	ARG	0.08807481419354812
0	A	585	SER	0.07445860179239455
0	A	586	ASP	0.06685722294184158
0	A	587	LEU	0.07984174632715564
0	A	588	GLU	0.16164906005182236
0	A	589	ASP	0.08347467461127288
0	A	590	MET	0.10145262390591554
0	A	591	GLU	0.054389551857027964
0	A	592	ASP	0.07414526153657408
0	A	593	ALA	0.039591300799019846
0	A	594	GLU	0.05310163796020753
0	A	595	ASN	0.14648753147063137
0	A	596	ALA	0.05043877091341292
0	A	597	PRO	0.1271572807647082
0	A	598	GLN	0.17395924560946477
0	A	599	GLN	0.006939572199092282
0	A	600	PRO	0.18920797177376308
0	A	601	GLN	0.17185732047758037
0	A	602	GLN	0.20362165520749556
0	A	603	GLU	0.2711697944224736
0	A	604	GLU	0.2614078872465473
0	A	605	ASN	0.1864169946838534
0	A	606	GLU	0.15642684208189053
0	A	607	GLN	0.12640739843851345
0	A	608	PRO	0.35290186975319415
0	A	609	GLN	0.2096878034960548
0	A	610	THR	0.15018525364942292
0	A	611	SER	0.07283109653344837
0	A	612	ARG	0.17845031696437672
0	A	613	GLU	0.2637608392421841
0	A	614	GLU	0.07814286592513091
0	A	615	ASN	0.11333271142229481
0	A	616	ALA	0.12592249712264758
0	A	617	THR	0.15188820840892003
0	A	618	PRO	0.19326514516852575
0	A	619	PRO	7.15667315190005e-06
0	A	620	VAL	0.11545649664310491
0	A	621	THR	0.09835152065824325
0	A	622	ASN	0.03573989828960837
0	A	623	GLY	0.10623073691135661
0	A	624	PRO	0.14522587395778136
0	A	625	SER	0.15815324022984928
0	A	626	VAL	0.179555481151098
0	A	627	SER	0.28944873423655665
0	A	628	ASN	0.17262599129160117
0	A	629	ASP	0.06692097713648731
0	A	630	ALA	0.07676473562075468
0	A	631	SER	0.09977884407920001
0	A	632	ILE	0.053252109470434704
0	A	633	SER	0.14473444944782754
0	A	634	SER	0.08622787417425591
0	A	635	ASN	0.09356076236717543
0	A	636	LEU	0.06532259403367152
0	A	637	GLN	0.11635373137944109
0	A	638	ALA	0.05604734035843087
0	A	639	MET	0.04145534573096494
0	A	640	SER	0.13194089309720397
0	A	641	SER	0.08631508759035861
0	A	642	GLN	9.252926086460843e-08
0	A	643	LEU	0.12545557153417933
0	A	644	PHE	0.09670700020695122
0	A	645	GLN	0.042558810509517694
0	A	646	ALA	0.12154598276682338
0	A	647	LYS	0.012084188040812488
0	A	648	ARG	0.019312602213855404
0	A	649	CYS	0.0510120361763776
0	A	650	PHE	0.14852334856922667
0	A	651	ARG	0.012169997597993351
0	A	652	LEU	0.12184342141763825
0	A	653	ALA	0.05222756689608163
0	A	654	PRO	0.13637986334205446
0	A	655	THR	0.09005642439369918
0	A	656	PHE	0.2119035784199009
0	A	657	SER	0.28035436725562785
0	A	658	ASN	9.676114000316428e-06
0	A	659	VAL	0.04971720853825039
0	A	660	LEU	0.032892231159815634
0	A	661	LEU	0.03926803853277438
0	A	662	ARG	0.05121247661995789
0	A	663	PRO	0.09537494919673492
0	A	664	ALA	0.05988970750515746
0	A	665	THR	0.03398181567910364
0	A	666	THR	0.05984363348866266
0	A	667	THR	0.03247534575317962
0	A	668	PRO	0.026689454676638132
0	A	669	PRO	0.028662860746360652
0	A	670	ALA	0.1714514046978956
0	A	671	PRO	0.09117182725075267
0	A	672	GLU	0.05522264712916468
0	A	673	LEU	0.019661143176607856
0	A	674	ASN	0.02613830283052492
0	A	675	PRO	0.09941253189857331
0	A	676	ALA	0.1769471851616409
0	A	677	PRO	0.031102791302002334
0	A	678	VAL	0.19975310556411024
0	A	679	GLN	0.1650713831093388
0	A	680	GLU	0.2041428563040546
0	A	681	ILE	0.1574603144656261
0	A	682	THR	0.07979506537917208
0	A	683	PRO	0.07431582511791188
0	A	684	PRO	0.09060279995287909
0	A	685	THR	0.10209047195694973
0	A	686	GLY	0.2493197119498293
0	A	687	GLU	0.16570607511663143
0	A	688	THR	0.1795231607299051
0	A	689	PRO	0.13791790162189183
0	A	690	ARG	0.2236933756414127
0	A	691	ASN	0.39711382044046817
0	A	692	THR	0.15642049832841667
0	A	693	SER	0.1646411372934523
0	A	694	PRO	0.05662484886415176
0	A	695	GLU	0.21612946821320944
0	A	696	ILE	0.554278887785628
0	A	697	ALA	0.3782434654730738
0	A	698	ASN	0.10426800491933864
0	A	699	GLY	0.046434611664777456
0	A	700	THR	0.23001916394319968
0	A	701	ASN	0.07314672201826566
0	A	702	ASP	0.5878911547358777
0	A	703	LYS	0.33203659959188203
0	A	704	ASP	0.057636065334077655
0	A	705	PRO	0.218513938424941
0	A	706	ASP	0.08964368987067979
0	A	707	SER	0.10355747286427623
0	A	708	ASP	0.09749990605920159
0	A	709	SER	0.32848430875312834
0	A	710	GLU	0.22227007380127714
0	A	711	GLY	0.4397286863305458
0	A	712	SER	0.18220280019645005
0	A	713	GLU	0.2670149208910154
0	A	714	HIS	0.05847553074801382
0	A	715	SER	0.033357533866259594
0	A	716	ASN	0.08520154247142726
0	A	717	HIS	0.14864710981628312
0	A	718	SER	0.11223462986216412
0	A	719	PHE	0.142525049943446
0	A	720	HIS	0.13767334517557614
0	A	721	SER	0.22569335739384536
0	A	722	GLU	0.038753054525726326
0	A	723	LYS	0.14184789384260044
0	A	724	THR	0.3005364753331882
0	A	725	LEU	0.1087837229703595
0	A	726	SER	0.06882590814011455
0	A	727	GLU	0.10981402875502326
0	A	728	ARG	0.04973450344684758
0	A	729	LEU	0.19639824162215352
0	A	730	GLU	0.04542148995774336
0	A	731	ILE	0.03626057689732056
0	A	732	LEU	0.11212554052414035
0	A	733	THR	0.12284129067247647
0	A	734	ASN	0.11744148982659768
0	A	735	GLN	0.02249400909457245
0	A	736	GLY	0.1330175367816185
0	A	737	LEU	0.08051951463715508
0	A	738	ILE	0.0451504712985176
0	A	739	GLN	0.0451595647155188
0	A	740	VAL	0.05947509413335546
0	A	741	VAL	0.010387402871840274
0	A	742	LYS	0.10226005389257527
0	A	743	VAL	0.07065964344127733
0	A	744	PHE	0.08462266177277525
0	A	745	LEU	0.147135364864072
0	A	746	ASP	0.1188872006328314
0	A	747	TRP	0.18888257205314415
0	A	748	LEU	0.17695673773550752
0	A	749	ARG	0.06196800453030104
0	A	750	THR	0.05736231284431989
0	A	751	ASN	0.0979526875051491
0	A	752	THR	0.04226546996566825
0	A	753	ASP	0.017242899866359216
0	A	754	ILE	0.14754500667533124
0	A	755	ILE	0.0046198919237862126
0	A	756	LEU	0.1043968855015612
0	A	757	MET	0.059947809320460003
0	A	758	CYS	0.04813370845107209
0	A	759	ALA	0.058108727744531
0	A	760	GLN	0.31906561869526506
0	A	761	SER	0.0005877064591678585
0	A	762	SER	0.06700017377927323
0	A	763	GLN	0.08448835575080965
0	A	764	SER	0.24302117751072033
0	A	765	LEU	0.1364724863649048
0	A	766	TRP	0.002434406179770085
0	A	767	ASN	0.10235117805853164
0	A	768	ARG	0.003144374844080967
0	A	769	LEU	0.008358746245396113
0	A	770	SER	0.009243504581389369
0	A	771	VAL	0.062442962725081444
0	A	772	LEU	0.0946248557639354
0	A	773	LEU	0.060941730881788704
0	A	774	ASN	0.013991160181424767
0	A	775	LEU	0.06624440157880493
0	A	776	LEU	0.020904634966115946
0	A	777	PRO	0.16031918343963536
0	A	778	GLU	1.9708021678711706e-06
0	A	779	GLY	0.11273329532866212
0	A	780	SER	0.11145094936854295
0	A	781	LYS	0.13627447892494468
0	A	782	ILE	0.09794355714449206
0	A	783	LEU	0.11199577329417768
0	A	784	GLU	1.6469415205729084e-06
0	A	785	THR	0.10885163596511953
0	A	786	ASP	0.1886551891291279
0	A	787	ILE	0.0792629395158153
0	A	788	GLY	0.09209422589437946
0	A	789	LEU	0.06905152304631572
0	A	790	ASN	0.05962269987142265
0	A	791	LYS	0.0781647471247171
0	A	792	ASP	0.1102844903791217
0	A	793	VAL	0.043659734092315335
0	A	794	THR	0.09106005685884809
0	A	795	GLU	0.17842798188559023
0	A	796	LEU	0.09230126869702449
0	A	797	LEU	0.13288846620345166
0	A	798	SER	0.21680389048352303
0	A	799	GLU	0.13327209968100112
0	A	800	CYS	0.043354080755741674
0	A	801	GLU	0.14784879963495023
0	A	802	HIS	0.042963588952369174
0	A	803	PRO	0.14674093328368765
0	A	804	SER	0.1108392574258419
0	A	805	LEU	0.10523067214782861
0	A	806	ALA	0.03173094692104423
0	A	807	GLN	0.09214744586944631
0	A	808	THR	0.01939495094213404
0	A	809	LEU	0.024084280426099298
0	A	810	LEU	0.05769122748990854
0	A	811	LEU	0.04476496424985063
0	A	812	PRO	0.08420503485418993
0	A	813	GLU	0.07575684935751932
0	A	814	ASP	0.03530358579766681
0	A	815	VAL	0.04860946357328556
0	A	816	ALA	0.09977067425359475
0	A	817	LEU	0.05281957314788628
0	A	818	ARG	0.016683772148833886
0	A	819	HIS	0.038148149660369175
0	A	820	LEU	0.02944729858492649
0	A	821	PRO	0.05283551697421283
0	A	822	ALA	0.08040839339806023
0	A	823	LEU	0.03609451780316241
0	A	824	SER	0.04035177539910978
0	A	825	VAL	0.05273831293803858
0	A	826	ALA	0.0439162840326155
0	A	827	HIS	0.08975727577938553
0	A	828	ARG	0.07275982694367222
0	A	829	CYS	0.09080392121525982
0	A	830	LEU	0.0668869942507817
0	A	831	ASP	0.035568917772726125
0	A	832	PHE	0.06115846875525857
0	A	833	THR	0.0884011638938886
0	A	834	SER	0.026551947750777453
0	A	835	GLN	0.06558952250242953
0	A	836	ARG	0.07242973537876188
0	A	837	PRO	0.05097565195304253
0	A	838	PRO	0.026839680775437243
0	A	839	LEU	0.07208524106573995
0	A	840	THR	0.19130983357366604
0	A	841	PRO	0.0442505370364727
0	A	842	LEU	0.054784036214063504
0	A	843	ASP	0.09502377335967147
0	A	844	GLU	0.03549086902210375
0	A	845	CYS	0.06032815481263992
0	A	846	VAL	0.04054261049217226
0	A	847	VAL	0.05037056764707131
0	A	848	ARG	0.06187765090345213
0	A	849	VAL	0.1069310197407566
0	A	850	CYS	0.07205493671262275
0	A	851	CYS	0.09567505834610035
0	A	852	ILE	0.05364510024824138
0	A	853	ARG	0.0945281478282824
0	A	854	SER	0.08775410631722058
0	A	855	PHE	0.10822867092972284
0	A	856	GLY	0.039748007870585925
0	A	857	HIS	0.055523938475516926
0	A	858	PHE	0.04031856833017676
0	A	859	LEU	0.09799159445241137
0	A	860	THR	0.14355499684688164
0	A	861	ASN	0.08123463826087161
0	A	862	LEU	0.07490955188854553
0	A	863	GLN	0.131881097151398
0	A	864	GLY	0.10898282816466451
0	A	865	ASN	0.09301408070341859
0	A	866	VAL	0.11526959341055659
0	A	867	LEU	0.15944456877600213
0	A	868	HIS	0.11362183247288107
0	A	869	PHE	0.021153028274973645
0	A	870	ASN	0.200431285531989
0	A	871	PRO	0.07965303285547128
0	A	872	GLU	0.2315963413875646
0	A	873	ALA	0.02356474443288552
0	A	874	GLY	0.11711521401356888
0	A	875	ILE	0.06981867917044716
0	A	876	PHE	0.025705821923460246
0	A	877	THR	0.045252124406387734
0	A	878	SER	0.06034106398152266
0	A	879	ILE	0.07783404335065289
0	A	880	SER	0.04176910556116242
0	A	881	GLN	0.024182065005436716
0	A	882	SER	0.09157010097134413
0	A	883	GLU	0.02958630700651372
0	A	884	GLN	0.05377679382597273
0	A	885	ASP	0.0694736676462435
0	A	886	ASN	0.09080333011676642
0	A	887	LEU	0.058487753820431
0	A	888	VAL	0.014696422487865174
0	A	889	GLN	0.038894015683407834
0	A	890	GLN	0.02803697716215278
0	A	891	ALA	0.09991420563418954
0	A	892	LYS	0.10825145988770961
0	A	893	ALA	0.07511632553026945
0	A	894	GLN	0.10098923435307747
0	A	895	PHE	0.08746610413163969
0	A	896	ARG	0.06442185492769588
0	A	897	MET	0.12408762184581895
0	A	898	ALA	0.07046584230041758
0	A	899	GLU	0.004504165262166307
0	A	900	GLU	0.11671023765827541
0	A	901	GLU	0.21321847701847826
0	A	902	ALA	0.0983065866174143
0	A	903	ARG	0.04972485059734368
0	A	904	ARG	0.005060517587546828
0	A	905	ASN	0.03135592923180262
0	A	906	ARG	0.043443370933068964
0	A	907	LEU	0.04643047397532363
0	A	908	MET	0.03985362978262606
0	A	909	ARG	0.1152568847929484
0	A	910	ASP	0.1592875371280312
0	A	911	MET	0.009071027846445694
0	A	912	ALA	0.09572365508652236
0	A	913	GLN	0.06151880661896979
0	A	914	LEU	0.08469437996408657
0	A	915	ARG	0.018243326149947923
0	A	916	LEU	0.03533411972921672
0	A	917	GLN	0.08726604895761313
0	A	918	LEU	0.017227301727098004
0	A	919	GLU	0.0771457249880792
0	A	920	VAL	0.005146089649797306
0	A	921	SER	0.00383902640479826
0	A	922	GLN	0.10913452937086457
0	A	923	LEU	0.17910751293573965
0	A	924	GLU	0.09160545077231574
0	A	925	GLY	0.12786104685308716
0	A	926	SER	0.172424057268792
0	A	927	LEU	0.01818200363950609
0	A	928	GLN	0.21256075328060337
0	A	929	GLN	3.4640603889764496e-05
0	A	930	PRO	0.1556419371699616
0	A	931	LYS	0.1972015022533687
0	A	932	ALA	0.20885644457574246
0	A	933	GLN	0.14086711366741975
0	A	934	SER	0.22476845713695182
0	A	935	SER	0.10415679395993677
0	A	936	MET	0.2954206445367389
0	A	937	SER	0.11828531459192271
0	A	938	PRO	0.0012778640880357448
0	A	939	TYR	0.21196087275244013
0	A	940	LEU	0.1314117755029654
0	A	941	VAL	0.15049404983557535
0	A	942	PRO	0.09071577365243094
0	A	943	ASP	0.13798139193328157
0	A	944	THR	0.39841943034843486
0	A	945	ALA	0.050536866874992405
0	A	946	VAL	0.4319657053740283
0	A	947	LEU	0.05200958877130864
0	A	948	CYS	0.0030186855999854577
0	A	949	GLN	0.030703657321996355
0	A	950	HIS	0.054614559831740364
0	A	951	LEU	0.20724789668990615
0	A	952	GLY	0.3110950988355813
0	A	953	LEU	0.1131995559313253
0	A	954	LEU	0.15045473123043374
0	A	955	ARG	0.14803428845324645
0	A	956	GLN	0.14548031019320107
0	A	957	LEU	0.22632686720415118
0	A	958	ALA	0.07854467040368744
0	A	959	ALA	0.10707759105646034
0	A	960	SER	0.19375951461561633
0	A	961	GLY	0.03892157037299768
0	A	962	CYS	0.017483862222728408
0	A	963	PHE	0.0788891963827001
0	A	964	ILE	0.014996609482791126
0	A	965	ILE	0.12201458665279968
0	A	966	ILE	0.09877591882117713
0	A	967	ILE	0.08882744618327021
0	A	968	PRO	0.002082173325339382
0	A	969	ARG	0.3271295110062462
0	A	970	THR	1.0917680854243572e-05
0	A	971	VAL	3.482648438915296e-05
0	A	972	ILE	0.07884036742501283
0	A	973	ASP	0.3902973148358534
0	A	974	GLY	0.08259892524963891
0	A	975	LEU	0.20917768549624707
0	A	976	ASP	0.32480258845497967
0	A	977	MET	0.10049989979851105
0	A	978	LEU	0.07304067789301595
0	A	979	LYS	0.040676478467932924
0	A	980	LYS	0.0826930524070484
0	A	981	GLU	0.12887931956127807
0	A	982	ASN	0.08852874617049172
0	A	983	SER	0.1532487060341314
0	A	984	GLY	0.062455038022875276
0	A	985	ALA	0.020983730013848297
0	A	986	ARG	0.055286586042089594
0	A	987	ASP	0.05757039006932836
0	A	988	GLY	0.09968208336689581
0	A	989	ILE	0.016351630211024554
0	A	990	ARG	0.013917834941084502
0	A	991	PHE	0.08161559596220541
0	A	992	LEU	0.11165715830009906
0	A	993	GLU	0.03122195834157213
0	A	994	THR	0.0852806916152271
0	A	995	GLU	0.15756699718835532
0	A	996	PHE	0.017138259600031337
0	A	997	ARG	0.054105587085263626
0	A	998	LYS	0.014864754936273622
0	A	999	GLY	0.06901276915134191
0	A	1000	ASN	0.0071376119647512636
0	A	1001	ARG	0.13568918586317227
0	A	1002	TYR	0.04732427822933201
0	A	1003	ILE	0.02958805655250089
0	A	1004	ARG	2.6783925761233576e-05
0	A	1005	CYS	0.09836315263216702
0	A	1006	GLN	0.11219586013419496
0	A	1007	LYS	0.010876315872905253
0	A	1008	GLU	0.06644057766896852
0	A	1009	SER	8.010198904807306e-06
0	A	1010	GLY	1.6374545639901662e-05
0	A	1011	ARG	3.302280110274386e-05
0	A	1012	SER	0.050472136312299534
0	A	1013	PHE	0.03387606974193319
0	A	1014	GLU	0.12787133830007055
0	A	1015	ARG	0.058384823517601894
0	A	1016	ASP	0.10123546909690122
0	A	1017	LYS	0.16522012882307185
0	A	1018	LEU	0.06499400132565518
0	A	1019	LYS	0.10422557249177641
0	A	1020	ARG	0.07027325502253537
0	A	1021	GLN	0.13688941135402924
0	A	1022	ASP	0.10142712222805725
0	A	1023	THR	0.11046028940425821
0	A	1024	GLU	0.10369087112784124
0	A	1025	ALA	0.180739303658763
0	A	1026	TRP	0.11926153486444001
0	A	1027	HIS	0.09089561536904912
0	A	1028	LEU	0.13894078700939733
0	A	1029	TYR	4.082310812903147e-06
0	A	1030	LYS	0.09517010190277969
0	A	1031	THR	0.03313185298924443
0	A	1032	VAL	0.09893046996654183
0	A	1033	ASP	0.11608014777496715
0	A	1034	SER	0.06939757427054796
0	A	1035	CYS	0.01506808622092322
0	A	1036	ARG	1.0854944156324339e-05
0	A	1037	GLN	0.01312384980631717
0	A	1038	LEU	0.04579029319630654
0	A	1039	THR	0.015307103757695811
0	A	1040	GLY	0.024861279395678944
0	A	1041	SER	0.062180921374224256
0	A	1042	GLN	0.09701611305301083
0	A	1043	SER	0.03338118308366087
0	A	1044	SER	0.016141238729861104
0	A	1045	GLY	0.014258863147539092
0	A	1046	ASP	0.13813267092627204
0	A	1047	GLU	0.06095267675924692
0	A	1048	ASP	0.10385197713328458
0	A	1049	THR	0.11995049182449316
0	A	1050	ALA	6.853012200910677e-06
0	A	1051	GLY	0.0061287704441292295
0	A	1052	MET	0.14239421662512916
0	A	1053	VAL	0.18040748629735853
0	A	1054	THR	0.07595189074968217
0	A	1055	ILE	0.029900087947371683
0	A	1056	LEU	0.0509780849566627
0	A	1057	THR	1.217555615724781e-05
0	A	1058	GLY	0.18227324647046753
0	A	1059	HIS	0.11129333717740886
0	A	1060	SER	0.2700116213672902
0	A	1061	LEU	0.049145347134207554
0	A	1062	GLU	0.2576680704107612
0	A	1063	GLU	0.03750065667632878
0	A	1064	LEU	5.109141378780884e-06
0	A	1065	SER	0.044612898884757314
0	A	1066	GLU	0.10298455064954434
0	A	1067	ARG	0.23622761919404595
0	A	1068	SER	0.15000346975204068
0	A	1069	ALA	0.03281911702608016
0	A	1070	SER	2.459352980953173e-05
0	A	1071	MET	0.3299216280718218
0	A	1072	LYS	0.07020301985512269
0	A	1073	ALA	0.2298642116952859
0	A	1074	ALA	0.04713406062308854
0	A	1075	VAL	0.025403308797632796
0	A	1076	GLN	0.1409052606309048
0	A	1077	ALA	0.08594711822288434
0	A	1078	VAL	0.08626604224840144
0	A	1079	ALA	0.17972658305427802
0	A	1080	ALA	0.2678638649915065
0	A	1081	ALA	0.26424258451430843
0	A	1082	GLY	0.026135671914462758
0	A	1083	MET	0.2833353614005065
0	A	1084	GLU	0.03776015155376572
0	A	1085	LEU	0.3188291370765825
0	A	1086	LYS	0.08913599959682714
0	A	1087	ASN	0.06500930655450224
0	A	1088	ILE	0.06322064779112666
0	A	1089	ILE	0.08525225555556226
0	A	1090	GLU	0.0966909033283362
0	A	1091	PHE	0.0382652188280539
0	A	1092	TYR	0.22353042245317747
0	A	1093	ARG	0.200294404009445
0	A	1094	GLN	0.11247347587482032
0	A	1095	TRP	0.07641928077268097
0	A	1096	LYS	0.04364100365880559
0	A	1097	GLU	0.0665431015915834
0	A	1098	MET	0.10525345055048514
0	A	1099	GLY	0.05226099562694968
