model	chain	pos	name	variance
0	A	1	MET	0.14993538433721545
0	A	2	ASP	0.12646093098973096
0	A	3	SER	0.1193935183702585
0	A	4	GLN	0.26005141954370087
0	A	5	GLN	0.23880633807418256
0	A	6	SER	0.1920530109908012
0	A	7	ASP	0.22710429495222753
0	A	8	LEU	0.36880208794299335
0	A	9	PHE	0.19748828825969264
0	A	10	ASP	0.10653650422005499
0	A	11	THR	0.22916920814784228
0	A	12	ALA	0.3515012082289862
0	A	13	SER	0.26579044762614895
0	A	14	GLN	0.14506633120982354
0	A	15	PRO	0.654317835685595
0	A	16	ASP	0.3545600528860419
0	A	17	THR	0.4528484137953497
0	A	18	VAL	0.09130459257111709
0	A	19	ALA	0.10916307498334761
0	A	20	ASP	0.15739200239955234
0	A	21	GLU	0.1455479535626271
0	A	22	TYR	0.13852188045354016
0	A	23	THR	0.308659550908322
0	A	24	PHE	0.37829045145424034
0	A	25	LEU	0.12827414766149806
0	A	26	GLU	0.271804679620946
0	A	27	PHE	0.2548203743420592
0	A	28	ASN	0.26686741475079867
0	A	29	THR	0.1521302394296909
0	A	30	GLN	0.24347412081717684
0	A	31	GLY	0.19837060614433127
0	A	32	ASP	0.6393453038791079
0	A	33	SER	0.29988546466879246
0	A	34	GLU	0.3757951018487262
0	A	35	PHE	0.26799719596861155
0	A	36	ASP	0.20454492407506983
0	A	37	TYR	0.21157056301075436
0	A	38	GLN	0.06728274735346211
0	A	39	ASP	0.4326600948810766
0	A	40	PHE	0.29723874360777064
0	A	41	GLY	0.09984409337071137
0	A	42	SER	0.14330853367163401
0	A	43	PRO	0.13456128865208847
0	A	44	THR	0.32685609933909154
0	A	45	ALA	0.15349542016256856
0	A	46	TRP	0.07436143297520398
0	A	47	PRO	0.4077432554660522
0	A	48	THR	0.1734364152994039
0	A	49	PRO	0.09523037296941218
0	A	50	SER	0.2823382225613099
0	A	51	ASP	0.20864198588061117
0	A	52	SER	0.3504054475984898
0	A	53	ILE	0.20512023484563385
0	A	54	SER	0.35489095504344137
0	A	55	ILE	0.505832082684572
0	A	56	ALA	0.11716944185718231
0	A	57	ASP	0.0967684012350233
0	A	58	VAL	0.2356425009847111
0	A	59	ALA	0.34270839050838175
0	A	60	ASP	0.09556639217048281
0	A	61	ARG	0.2200635839970026
0	A	62	GLY	0.17252119327334062
0	A	63	GLU	0.26860544189298613
0	A	64	GLY	0.09150401771855453
0	A	65	GLY	0.17797467481274692
0	A	66	ALA	0.1285600043283987
0	A	67	ALA	0.20703818034453667
0	A	68	ALA	0.14391231381244102
0	A	69	ASP	0.18691072323756408
0	A	70	HIS	0.6028912366669176
0	A	71	HIS	0.22325917776962093
0	A	72	SER	0.0634697279902471
0	A	73	GLU	0.31356766413573683
0	A	74	ALA	0.2722843171810529
0	A	75	SER	0.3377471530639448
0	A	76	SER	0.45759935625109627
0	A	77	PRO	0.3029542953141033
0	A	78	SER	0.413052110743881
0	A	79	SER	0.14558174155704948
0	A	80	LEU	0.10184204307210261
0	A	81	SER	0.8704432149472071
0	A	82	ALA	0.4846019026664717
0	A	83	GLY	0.0959237013744639
0	A	84	ALA	0.24037268064810724
0	A	85	GLY	0.11725033766576494
0	A	86	ASN	0.2480235913080175
0	A	87	GLY	0.1308710783369805
0	A	88	ALA	0.1302025288282514
0	A	89	LYS	0.28817239664365507
0	A	90	VAL	0.19924008490121328
0	A	91	GLY	0.386786883802936
0	A	92	ARG	0.3203176959980559
0	A	93	GLY	0.5413648959616443
0	A	94	GLY	0.2826010215193046
0	A	95	VAL	0.2353369979713519
0	A	96	GLY	0.43588591022374046
0	A	97	GLY	0.127634315622099
0	A	98	SER	0.47617406971535503
0	A	99	GLY	0.08394867172575077
0	A	100	GLY	0.2658100784664146
0	A	101	VAL	0.15923561120948734
0	A	102	SER	0.24062349331895713
0	A	103	SER	0.3202990575541386
0	A	104	SER	0.5320982710094794
0	A	105	SER	0.7256248626514732
0	A	106	GLN	0.35804246470952333
0	A	107	VAL	0.08377822765292345
0	A	108	ASP	0.2519887884487732
0	A	109	ALA	0.40754322557709
0	A	110	LEU	0.17457607396212138
0	A	111	ALA	0.2104776245073736
0	A	112	ALA	0.20882345485662085
0	A	113	GLY	0.23131053586227918
0	A	114	VAL	0.26575313972592857
0	A	115	GLY	0.1326620901404535
0	A	116	ASN	0.08366355160301492
0	A	117	LEU	0.42081463498059357
0	A	118	ASN	0.16966749554891825
0	A	119	PHE	0.38611847384994336
0	A	120	GLU	0.1811922718731511
0	A	121	GLU	0.4585811773758489
0	A	122	THR	0.3089806221393957
0	A	123	GLY	0.30095709766306983
0	A	124	ASP	0.38521266408299637
0	A	125	ASP	0.38734228462176146
0	A	126	ASP	0.2682923098326991
0	A	127	GLY	0.21763280217890232
0	A	128	PHE	0.24958534404883112
0	A	129	ASP	0.5865166969193137
0	A	130	TYR	0.33971501299793055
0	A	131	GLY	0.45120243141447075
0	A	132	LYS	0.2948931218013123
0	A	133	ASN	0.261334588022104
0	A	134	ASP	0.34314588223607007
0	A	135	PHE	0.10234162159633395
0	A	136	THR	0.5787088325744364
0	A	137	GLU	0.19770098670828912
0	A	138	HIS	0.26111160896758645
0	A	139	ALA	0.21240692053951055
0	A	140	CYS	0.2669838042350274
0	A	141	LYS	0.7379852832195868
0	A	142	TYR	0.2400703874166872
0	A	143	CYS	0.9320820685884734
0	A	144	GLY	0.36704576349313345
0	A	145	ILE	0.3251251740332719
0	A	146	SER	0.25836512106117066
0	A	147	ASN	0.3006967176711742
0	A	148	PRO	0.4119389831772886
0	A	149	ALA	0.40005888244177135
0	A	150	CYS	0.15652154675251495
0	A	151	VAL	0.13346751281428879
0	A	152	VAL	0.38785640795497317
0	A	153	ARG	0.48914596149597533
0	A	154	CYS	0.5068831234546213
0	A	155	ASN	0.19265745789790473
0	A	156	VAL	0.09535860143195272
0	A	157	ALA	0.2889559865978269
0	A	158	SER	0.44953622895799444
0	A	159	CYS	0.2380932547793217
0	A	160	ARG	0.4329881749113605
0	A	161	LYS	0.6384615129061397
0	A	162	TRP	0.06120524233836196
0	A	163	PHE	0.3870187323998168
0	A	164	CYS	0.1329704617995071
0	A	165	ASN	0.06503448893249161
0	A	166	SER	0.08725164588449803
0	A	167	ARG	0.14444079588031777
0	A	168	GLY	0.20794868848794534
0	A	169	ASN	0.35719241521239864
0	A	170	THR	0.21729490672848562
0	A	171	SER	0.3322390742191869
0	A	172	GLY	0.47193821197678265
0	A	173	SER	0.41224250139795116
0	A	174	HIS	0.08094396694135488
0	A	175	ILE	0.36131647329985345
0	A	176	VAL	0.03475962797836509
0	A	177	ASN	0.41113678579158547
0	A	178	HIS	0.1045165822432638
0	A	179	LEU	0.6226963045164163
0	A	180	VAL	0.29810178729458137
0	A	181	ARG	0.11987829623332594
0	A	182	ALA	0.16893614595877077
0	A	183	LYS	0.07725659425955543
0	A	184	HIS	0.29791400729804396
0	A	185	LYS	0.12870140530184415
0	A	186	GLU	0.2726524962262869
0	A	187	VAL	0.07557388546069145
0	A	188	CYS	0.15623086765960909
0	A	189	LEU	0.2891394248603403
0	A	190	HIS	0.37001678107336106
0	A	191	ARG	0.23907682810387687
0	A	192	ASP	0.21349382713383658
0	A	193	SER	0.2805238429250721
0	A	194	PRO	0.13576728280821526
0	A	195	LEU	0.15442963727498676
0	A	196	GLY	0.24812008634670057
0	A	197	GLU	0.1497795005795614
0	A	198	THR	0.21719068960571702
0	A	199	ILE	0.29682978327509707
0	A	200	LEU	0.3802214066490222
0	A	201	GLU	0.22757904806155746
0	A	202	CYS	0.32493779719775107
0	A	203	TYR	0.15465163943934893
0	A	204	ASN	0.24343597558253752
0	A	205	CYS	0.21010387873887312
0	A	206	GLY	0.20017622478155642
0	A	207	CYS	0.296372412608056
0	A	208	ARG	0.2865101017478003
0	A	209	ASN	0.4040249944479107
0	A	210	VAL	0.20226920418639763
0	A	211	PHE	0.12469244968460384
0	A	212	LEU	0.6921581565468723
0	A	213	LEU	1.0
0	A	214	GLY	0.2802647654533837
0	A	215	PHE	0.34379388603914995
0	A	216	ILE	0.2975857411934448
0	A	217	SER	0.3107629969933996
0	A	218	ALA	0.3005235445083889
0	A	219	LYS	0.21004435046416567
0	A	220	THR	0.12212462413327504
0	A	221	ASP	0.26516157846516053
0	A	222	SER	0.15725455550530731
0	A	223	VAL	0.15343655865415767
0	A	224	VAL	0.23122754671764928
0	A	225	VAL	0.2323622278924321
0	A	226	LEU	0.03447593830192821
0	A	227	LEU	0.22769419705035074
0	A	228	CYS	0.16946033281120235
0	A	229	ARG	0.29823721838374384
0	A	230	ASP	0.38421437538133846
0	A	231	PRO	0.049589797427444286
0	A	232	CYS	0.14950335078944296
0	A	233	LEU	0.2262603083765435
0	A	234	ASN	0.3833817858574674
0	A	235	VAL	0.07060418938800425
0	A	236	ASN	0.42142182648384796
0	A	237	ALA	0.2070108429263785
0	A	238	LEU	0.35290244086045586
0	A	239	LYS	0.13921603068681787
0	A	240	ASP	0.22907890008014337
0	A	241	MET	0.14829206902152267
0	A	242	ASN	0.16760853673139353
0	A	243	TRP	0.24343644076832582
0	A	244	ASP	0.48288753797471495
0	A	245	LEU	0.11763649614171612
0	A	246	SER	0.1481796336164944
0	A	247	GLN	0.37426932347553993
0	A	248	TRP	0.262205974040718
0	A	249	CYS	0.09388530376878136
0	A	250	PRO	0.11920198587502895
0	A	251	LEU	0.1765314048922093
0	A	252	ILE	0.1477106177985533
0	A	253	ASP	0.13794630607769612
0	A	254	ASP	0.1827538850582282
0	A	255	ARG	0.3403133659712076
0	A	256	CYS	0.1444574030129595
0	A	257	PHE	0.3950013205267737
0	A	258	LEU	0.4773933836912197
0	A	259	PRO	0.3483651117186894
0	A	260	TRP	0.29471312591363213
0	A	261	LEU	0.6041874303473928
0	A	262	VAL	0.3133383895668845
0	A	263	LYS	0.10558922314008246
0	A	264	VAL	0.7580863332799778
0	A	265	PRO	0.12052988196697562
0	A	266	SER	0.22432843831637805
0	A	267	GLU	0.15296303053407023
0	A	268	GLN	0.17807560462261166
0	A	269	GLU	0.2520825233851125
0	A	270	GLN	0.23333013996211505
0	A	271	LEU	0.8330965492444571
0	A	272	ARG	0.25240840153599853
0	A	273	ALA	0.10339955486914636
0	A	274	ARG	0.32580949334022385
0	A	275	GLN	0.3801864556901291
0	A	276	ILE	0.2356274289651707
0	A	277	SER	0.09468668707935503
0	A	278	ALA	0.06900886573946946
0	A	279	GLN	0.13535435289014833
0	A	280	GLN	0.13572932364789128
0	A	281	ILE	0.08920172021517836
0	A	282	ASN	0.6941966006711336
0	A	283	LYS	0.23689205203681424
0	A	284	ILE	0.1443499295896729
0	A	285	GLU	0.107285740203762
0	A	286	GLU	0.31808923898547337
0	A	287	LEU	0.20741588019223756
0	A	288	TRP	0.13453824644937545
0	A	289	LYS	0.4032758592544578
0	A	290	THR	0.13321476186932102
0	A	291	ASN	0.21326186999360514
0	A	292	PRO	0.1851830077136836
0	A	293	ASP	0.3579232841105649
0	A	294	ALA	0.37534957791309354
0	A	295	THR	0.312430005771909
0	A	296	LEU	0.06469617481486546
0	A	297	GLU	0.5159624025836512
0	A	298	ASP	0.22020202328759597
0	A	299	LEU	0.3697631617815885
0	A	300	GLU	0.5599025496247697
0	A	301	LYS	0.2632805842240404
0	A	302	PRO	0.2613125072033535
0	A	303	GLY	0.2465568915299433
0	A	304	VAL	0.1846922832256226
0	A	305	ASP	0.08061800350640766
0	A	306	ASP	0.030671489986862338
0	A	307	GLU	0.1293762348187151
0	A	308	PRO	0.11287561421629323
0	A	309	GLN	0.29570800325284263
0	A	310	PRO	0.08228560152024887
0	A	311	VAL	0.15498215394192486
0	A	312	GLN	0.15868110974985258
0	A	313	PRO	0.030755979355659456
0	A	314	LYS	0.15250364406194664
0	A	315	TYR	0.0967543603773136
0	A	316	GLU	0.07538733045339654
0	A	317	ASP	0.07927918330153277
0	A	318	ALA	0.13550601896332193
0	A	319	TYR	0.30139800075320555
0	A	320	GLN	0.09583624644626647
0	A	321	TYR	0.19632251716805948
0	A	322	GLN	0.07734468494166351
0	A	323	ASN	0.2205983150606353
0	A	324	VAL	0.09311564612896868
0	A	325	PHE	0.0822008679289129
0	A	326	ALA	0.11489292339957355
0	A	327	PRO	0.08498416753737494
0	A	328	LEU	0.5111659029330387
0	A	329	ILE	0.08817150426225122
0	A	330	LYS	0.03983552984306581
0	A	331	LEU	0.1297437936162314
0	A	332	GLU	0.03990690872572979
0	A	333	ALA	0.09318216769669331
0	A	334	ASP	0.2844310003856429
0	A	335	TYR	0.3369928077896632
0	A	336	ASP	0.15639558994724054
0	A	337	LYS	0.31072181254494347
0	A	338	MET	0.04826554141429094
0	A	339	MET	0.277699358868154
0	A	340	LYS	0.06177937463826232
0	A	341	GLU	0.08676472816680449
0	A	342	SER	0.035327375603321255
0	A	343	GLN	0.04246475991844813
0	A	344	SER	0.09742275482411328
0	A	345	LYS	0.3421204576967623
0	A	346	GLU	0.19633329397215474
0	A	347	ASN	0.18787626285972678
0	A	348	LEU	0.024817101643742123
0	A	349	THR	0.10399859786800934
0	A	350	VAL	0.3561803880237934
0	A	351	ARG	0.08934394301684978
0	A	352	TRP	0.09980074580833975
0	A	353	ASP	0.09473595800743079
0	A	354	ILE	0.025387665580991522
0	A	355	GLY	0.04069360767158662
0	A	356	LEU	0.031225192877560554
0	A	357	ASN	0.06883550650236889
0	A	358	LYS	0.08550620678208394
0	A	359	LYS	0.0312943970166643
0	A	360	ARG	0.07129595166756875
0	A	361	VAL	0.6166618524460219
0	A	362	ALA	0.6707537799572525
0	A	363	TYR	0.1215017946344378
0	A	364	PHE	0.23781974104200354
0	A	365	VAL	0.20544211239874063
0	A	366	PHE	0.1862990659507421
0	A	367	PRO	0.10476771279106903
0	A	368	LYS	0.21279665319293503
0	A	369	GLU	0.10917513104836064
0	A	370	GLU	0.10219076184519339
0	A	371	ASN	0.06196471240941122
0	A	372	GLU	0.04987925928420413
0	A	373	LEU	0.1282433678685066
0	A	374	ARG	0.31418909032411274
0	A	375	LEU	0.17585237319705085
0	A	376	VAL	0.03982952894639695
0	A	377	PRO	0.08266427050500867
0	A	378	GLY	0.2989451071039689
0	A	379	ASP	0.32292890787723866
0	A	380	GLU	0.20311210532857565
0	A	381	LEU	0.11991399924257674
0	A	382	ARG	0.09920997536341176
0	A	383	LEU	0.1899542942945711
0	A	384	ARG	0.08989197839402739
0	A	385	TYR	0.44198880662978446
0	A	386	SER	0.15785690907636357
0	A	387	GLY	0.16522374628156164
0	A	388	ASP	0.18552764835803043
0	A	389	ALA	0.8655679438364451
0	A	390	VAL	0.1875391117065713
0	A	391	HIS	0.11801536670698419
0	A	392	PRO	0.1615351486105197
0	A	393	SER	0.09904796665954532
0	A	394	TRP	0.09083054499356608
0	A	395	GLN	0.12650506161484618
0	A	396	SER	0.18087389871964937
0	A	397	VAL	0.2271750652168185
0	A	398	GLY	0.22394613312937314
0	A	399	HIS	0.47439752518989764
0	A	400	VAL	0.15387032889553973
0	A	401	ILE	0.2748749988607794
0	A	402	LYS	0.24699180922960315
0	A	403	LEU	0.291423394043658
0	A	404	THR	0.10250307983035092
0	A	405	ALA	0.07931721223972502
0	A	406	GLN	0.16146292076379212
0	A	407	GLU	0.35905294127883425
0	A	408	GLU	0.21678645866189097
0	A	409	VAL	0.37439907929808536
0	A	410	ALA	0.045679240234070786
0	A	411	LEU	0.19849643890006216
0	A	412	GLU	0.46468546933925775
0	A	413	LEU	0.14472302409806978
0	A	414	ARG	0.0676719140308442
0	A	415	ALA	0.3373184998662339
0	A	416	ASN	0.24579283937887944
0	A	417	GLN	0.4181474147325014
0	A	418	GLY	0.06532567972976458
0	A	419	VAL	0.06534824899359283
0	A	420	PRO	0.0637935283112788
0	A	421	ILE	0.27668174945008933
0	A	422	ASP	0.30091644042517374
0	A	423	VAL	0.17988398336218062
0	A	424	ASN	0.07017658285831695
0	A	425	HIS	0.10690548958732202
0	A	426	GLY	0.15382275589559122
0	A	427	PHE	0.1426296260260191
0	A	428	SER	0.2453515176215342
0	A	429	VAL	0.06998059233261633
0	A	430	ASP	0.12925344127680102
0	A	431	PHE	0.09974469867394799
0	A	432	VAL	0.060769789675045593
0	A	433	TRP	0.30861259815609116
0	A	434	LYS	0.3241894993387171
0	A	435	SER	0.6743465648621008
0	A	436	THR	0.10144289040646534
0	A	437	SER	0.095270549515327
0	A	438	PHE	0.21565644485118396
0	A	439	ASP	0.646448318717577
0	A	440	ARG	0.10649154401361732
0	A	441	MET	0.14324891235976892
0	A	442	GLN	0.14336060346753596
0	A	443	GLY	0.27827842213741016
0	A	444	ALA	0.13254411902454463
0	A	445	MET	0.10871287593054263
0	A	446	LYS	0.12431578875183012
0	A	447	ASN	0.2465751888376158
0	A	448	PHE	0.1213261094683958
0	A	449	ALA	0.1457452233492455
0	A	450	VAL	0.19320650117762364
0	A	451	ASP	0.11920873106895907
0	A	452	GLU	0.13022412895502072
0	A	453	THR	0.14014632473242156
0	A	454	SER	0.1751797610657707
0	A	455	VAL	0.20550160966106218
0	A	456	SER	0.12531212367317723
0	A	457	GLY	0.43393609949834017
0	A	458	TYR	0.3309383837427584
0	A	459	ILE	0.11738785433787821
0	A	460	TYR	0.23801865448507387
0	A	461	HIS	0.11181179634325902
0	A	462	GLN	0.04159548661862261
0	A	463	LEU	0.06945449821845279
0	A	464	LEU	0.10175898414960446
0	A	465	GLY	0.1486578601130435
0	A	466	HIS	0.06619316594085344
0	A	467	GLU	0.25592919118701335
0	A	468	VAL	0.12483890567694865
0	A	469	GLU	0.14207189927825223
0	A	470	ALA	0.11519242551626387
0	A	471	GLN	0.3115650703295592
0	A	472	MET	0.06927702984022237
0	A	473	VAL	0.3741758831568666
0	A	474	ARG	0.33891436623152166
0	A	475	ASN	0.2010985951625663
0	A	476	THR	0.31671759217013856
0	A	477	LEU	0.10247430033624907
0	A	478	PRO	0.1295081304958866
0	A	479	ARG	0.06686049046034007
0	A	480	ARG	0.56020721530371
0	A	481	PHE	0.2199622355199284
0	A	482	GLY	0.07550396803671233
0	A	483	VAL	0.14855189079047235
0	A	484	PRO	0.12030234409173286
0	A	485	GLY	0.17109499567123304
0	A	486	LEU	0.08945082720480454
0	A	487	PRO	0.07988312625736568
0	A	488	GLU	0.06765814453151099
0	A	489	LEU	0.17474583576245922
0	A	490	ASN	0.7157586442305959
0	A	491	ALA	0.11705910754129777
0	A	492	SER	0.5369553688621124
0	A	493	GLN	0.026392906871910152
0	A	494	VAL	0.07481635366376005
0	A	495	ASN	0.14198255259451578
0	A	496	ALA	0.2787958948082975
0	A	497	VAL	0.0897985225691611
0	A	498	LYS	0.16016646347803698
0	A	499	SER	0.06083036461777667
0	A	500	VAL	0.15487584348310898
0	A	501	LEU	0.14485749380326982
0	A	502	GLN	0.09307934613128957
0	A	503	LYS	0.25164906326758923
0	A	504	PRO	0.06118585184408698
0	A	505	ILE	0.09143439491224133
0	A	506	SER	0.12606369333892212
0	A	507	LEU	0.19505181566878235
0	A	508	ILE	0.051984341272637215
0	A	509	GLN	0.08941041031289912
0	A	510	GLY	0.08243570146793523
0	A	511	PRO	0.15417127308817372
0	A	512	PRO	0.013054407986365436
0	A	513	GLY	0.08371421033535906
0	A	514	THR	0.29300666938027625
0	A	515	GLY	0.18312021886650204
0	A	516	LYS	0.18303398892754708
0	A	517	THR	0.0862274773468186
0	A	518	VAL	0.10245323517313627
0	A	519	THR	0.30350091962772313
0	A	520	SER	0.05051434255201443
0	A	521	ALA	0.10817422180009541
0	A	522	ALA	0.20432867470828944
0	A	523	ILE	0.22974465847414277
0	A	524	VAL	0.0690467318626358
0	A	525	TYR	0.18043307316047832
0	A	526	HIS	0.278391803420208
0	A	527	MET	0.05625742550391706
0	A	528	ALA	0.2683543346044703
0	A	529	LYS	0.08062529917018725
0	A	530	GLN	0.18825340448448172
0	A	531	GLY	0.19361456215110653
0	A	532	GLN	0.44958008047163667
0	A	533	GLY	0.21261592851418662
0	A	534	GLN	0.16432576714205074
0	A	535	VAL	0.030798191089398012
0	A	536	LEU	0.09958868311365393
0	A	537	VAL	0.1458243359456397
0	A	538	CYS	0.11214731934615547
0	A	539	ALA	0.3635122742700984
0	A	540	PRO	0.08204886071949456
0	A	541	SER	0.14536600389463622
0	A	542	ASN	0.155988242258633
0	A	543	VAL	0.1317805785778479
0	A	544	ALA	0.14497948102315086
0	A	545	VAL	0.23852680793400258
0	A	546	ASP	0.14397457117710638
0	A	547	GLN	0.18830021768097605
0	A	548	LEU	0.09316400219166082
0	A	549	ALA	0.08283765300139867
0	A	550	GLU	0.5193219743466396
0	A	551	LYS	0.41365958135860836
0	A	552	ILE	0.09755078170614556
0	A	553	SER	0.0863234219156522
0	A	554	ALA	0.07589198725581667
0	A	555	THR	0.15835926320913168
0	A	556	GLY	0.055217049118064146
0	A	557	LEU	0.4221321341701721
0	A	558	LYS	0.12087523589619781
0	A	559	VAL	0.15256773115737926
0	A	560	VAL	0.27440758018071143
0	A	561	ARG	0.1213365218769569
0	A	562	LEU	0.3098673592890231
0	A	563	CYS	0.07744176146258196
0	A	564	ALA	0.0833366655495876
0	A	565	LYS	0.06328932894155048
0	A	566	SER	0.1727807204246244
0	A	567	ARG	0.26098160504595397
0	A	568	GLU	0.1580386106452674
0	A	569	ALA	0.07421135628680703
0	A	570	VAL	0.15079210149730551
0	A	571	SER	0.2567536554657824
0	A	572	SER	0.1715882786811296
0	A	573	PRO	0.1294706675337368
0	A	574	VAL	0.11273671749300804
0	A	575	GLU	0.3243718831801104
0	A	576	TYR	0.3025001809475803
0	A	577	LEU	0.1289457518902369
0	A	578	THR	0.05250850098923115
0	A	579	LEU	0.27997129524574815
0	A	580	HIS	0.1977509321557579
0	A	581	TYR	0.2323699809889035
0	A	582	GLN	0.08187187303324536
0	A	583	VAL	0.15328010116736474
0	A	584	ARG	0.1696818232711974
0	A	585	HIS	0.04333704917280101
0	A	586	LEU	0.19176281258987657
0	A	587	ASP	0.1310275358237734
0	A	588	THR	0.31695756601212144
0	A	589	SER	0.15250676080672815
0	A	590	GLU	0.14563748632067888
0	A	591	LYS	0.3574550901208498
0	A	592	SER	0.1747008057781533
0	A	593	GLU	0.06766225367264082
0	A	594	LEU	0.43357976718451446
0	A	595	HIS	0.1637673271094085
0	A	596	LYS	0.2176890896592847
0	A	597	LEU	0.15449110382381206
0	A	598	GLN	0.13434285291210316
0	A	599	GLN	0.2057816515056093
0	A	600	LEU	0.22964268974935087
0	A	601	LYS	0.03881424545727374
0	A	602	ASP	0.07557000891245576
0	A	603	GLU	0.16865934490854873
0	A	604	GLN	0.09576556146573668
0	A	605	GLY	0.4709467149876337
0	A	606	GLU	0.11968319731371954
0	A	607	LEU	0.1589578642814958
0	A	608	SER	0.25107093036990963
0	A	609	SER	0.10070721458848682
0	A	610	SER	0.2669276718165744
0	A	611	ASP	0.19977630455936848
0	A	612	GLU	0.12013938175700044
0	A	613	LYS	0.12606480978481402
0	A	614	LYS	0.5514088773784179
0	A	615	TYR	0.11450079503933938
0	A	616	LYS	0.052177094880561006
0	A	617	ASN	0.14450285166447488
0	A	618	LEU	0.2536291730939998
0	A	619	LYS	0.09561516690038441
0	A	620	ARG	0.05950365474959012
0	A	621	ALA	0.054476822232456916
0	A	622	THR	0.09790803663845135
0	A	623	GLU	0.11668759466458106
0	A	624	ARG	0.13348982622593347
0	A	625	GLU	0.021833735319109638
0	A	626	ILE	0.20524637772522358
0	A	627	THR	0.1707748393055429
0	A	628	GLN	0.40338077415590884
0	A	629	SER	0.05021735631512909
0	A	630	ALA	0.09754967301335014
0	A	631	ASP	0.044955713518262955
0	A	632	VAL	0.22814452790579573
0	A	633	ILE	0.38846449881741824
0	A	634	CYS	0.07663132253532969
0	A	635	CYS	0.2950456097027118
0	A	636	THR	0.1854476519086385
0	A	637	CYS	0.04991710602462929
0	A	638	VAL	0.2073313869468922
0	A	639	GLY	0.10495745432101368
0	A	640	ALA	0.044284179067392355
0	A	641	ALA	0.10503504731049948
0	A	642	ASP	0.25667665171162846
0	A	643	LEU	0.10995393734200958
0	A	644	ARG	0.3093485220731568
0	A	645	LEU	0.18311117875601637
0	A	646	SER	0.09083252203316629
0	A	647	ASN	0.2069656268677573
0	A	648	PHE	0.13376048682375016
0	A	649	ARG	0.10499564607423181
0	A	650	PHE	0.16373786534281717
0	A	651	ARG	0.1105372182957462
0	A	652	GLN	0.03170319453431199
0	A	653	VAL	0.08979196344954629
0	A	654	LEU	0.3066126714150997
0	A	655	ILE	0.30592515783240154
0	A	656	ASP	0.3193577075929667
0	A	657	GLU	0.3466367604408983
0	A	658	SER	0.06601471291937114
0	A	659	THR	0.17586569301678873
0	A	660	GLN	0.1508368988887173
0	A	661	ALA	0.09863438548137478
0	A	662	THR	0.1391237843450011
0	A	663	GLU	0.0638703614973104
0	A	664	PRO	0.15298111075504153
0	A	665	GLU	0.06437991825670045
0	A	666	CYS	0.19951189295730773
0	A	667	LEU	0.23342088220321633
0	A	668	ILE	0.10032376194320415
0	A	669	PRO	0.25553353516788474
0	A	670	LEU	0.10050383536184897
0	A	671	VAL	0.39446049552931456
0	A	672	LEU	0.03535604267752427
0	A	673	GLY	0.276809272380851
0	A	674	VAL	0.17711681019437908
0	A	675	LYS	0.10110863115829373
0	A	676	GLN	0.175545970824501
0	A	677	VAL	0.13391077284575184
0	A	678	VAL	0.26765122179167167
0	A	679	LEU	0.20910112425364769
0	A	680	VAL	0.08730988714519122
0	A	681	GLY	0.05573083906812758
0	A	682	ASP	0.09292545491942868
0	A	683	HIS	0.053571469898201725
0	A	684	CYS	0.04833041544901541
0	A	685	GLN	0.13331935114072024
0	A	686	LEU	0.07970705343650011
0	A	687	GLY	0.06343113307601246
0	A	688	PRO	0.031330712520536354
0	A	689	VAL	0.20546323183352874
0	A	690	ILE	0.18080840056065897
0	A	691	MET	0.22865198357604202
0	A	692	CYS	0.2857065398171182
0	A	693	LYS	0.031079442416994642
0	A	694	LYS	0.12494182027951006
0	A	695	ALA	0.10865644114132729
0	A	696	ALA	0.05903970945674134
0	A	697	ARG	0.18360762502927327
0	A	698	ALA	0.06054935363617065
0	A	699	GLY	0.28263907371678626
0	A	700	LEU	0.33921903191046193
0	A	701	ALA	0.09141993538732215
0	A	702	GLN	0.14287941528813478
0	A	703	SER	0.16604163593452292
0	A	704	LEU	0.10600747168232878
0	A	705	PHE	0.40652226682134973
0	A	706	GLU	0.12250873579175778
0	A	707	ARG	0.1216520186316677
0	A	708	LEU	0.016717558056514096
0	A	709	VAL	0.22589181920745063
0	A	710	THR	0.03537809248388894
0	A	711	LEU	0.24534058575550954
0	A	712	GLY	0.027927843590303293
0	A	713	ILE	0.09592688789711365
0	A	714	LYS	0.11243066400979938
0	A	715	PRO	0.291498506042273
0	A	716	ILE	0.14381386499344714
0	A	717	ARG	0.2288848245692712
0	A	718	LEU	0.050917871840609794
0	A	719	GLN	0.08384871880604144
0	A	720	VAL	0.08734365188032418
0	A	721	GLN	0.08708832690732793
0	A	722	TYR	0.44075873135601745
0	A	723	ARG	0.07630404882707881
0	A	724	MET	0.041693187263807004
0	A	725	HIS	0.3514640553906952
0	A	726	PRO	0.05524151013743143
0	A	727	ALA	0.4179926319145463
0	A	728	LEU	0.0307996447949864
0	A	729	SER	0.10127724550035382
0	A	730	GLU	0.23478296169750543
0	A	731	PHE	0.06955619558486818
0	A	732	PRO	0.47384866798449404
0	A	733	SER	0.22524139643827168
0	A	734	ASN	0.415017179563137
0	A	735	SER	0.07359451993154217
0	A	736	PHE	0.1284227900270478
0	A	737	TYR	0.19021065818249455
0	A	738	GLU	0.024577311937800442
0	A	739	GLY	0.12769492933031246
0	A	740	THR	0.04998202657793258
0	A	741	LEU	0.13714547323697193
0	A	742	GLN	0.062442543498040286
0	A	743	ASN	0.1399479074875254
0	A	744	GLY	0.02395313340017717
0	A	745	VAL	0.4828622628802182
0	A	746	THR	0.15990188130785388
0	A	747	ILE	0.053874247698151204
0	A	748	ILE	0.06721351220197247
0	A	749	GLU	0.023510245517344725
0	A	750	ARG	0.45295825966615655
0	A	751	GLN	0.47426283839799643
0	A	752	THR	0.045251618198190534
0	A	753	THR	0.15837396308004148
0	A	754	GLY	0.13112657387809912
0	A	755	ILE	0.06608467686192909
0	A	756	ASP	0.06425845824737944
0	A	757	PHE	0.047381607009038006
0	A	758	PRO	0.18818100606963176
0	A	759	TRP	0.19608271389419898
0	A	760	PRO	0.06533645653385983
0	A	761	VAL	0.18871193811599346
0	A	762	PRO	0.15908503056981976
0	A	763	ASN	0.19858300997526185
0	A	764	ARG	0.17102720259568707
0	A	765	PRO	0.06330782782973125
0	A	766	MET	0.04961744884600954
0	A	767	PHE	0.14398689860049593
0	A	768	PHE	0.4176860434676811
0	A	769	TYR	0.10116650802345276
0	A	770	VAL	0.41356688533719627
0	A	771	GLN	0.08282320898267245
0	A	772	LEU	0.04459905169783722
0	A	773	GLY	0.037221511342960395
0	A	774	GLN	0.04037628893920502
0	A	775	GLU	0.24869100886466178
0	A	776	GLU	0.1536356891839292
0	A	777	ILE	0.02103175114355944
0	A	778	SER	0.17823474468078368
0	A	779	ALA	0.1186920492139118
0	A	780	SER	0.1052775874274144
0	A	781	GLY	0.22260835183942543
0	A	782	THR	0.27755694999216723
0	A	783	SER	0.1588231464772087
0	A	784	TYR	0.2851513560849939
0	A	785	LEU	0.32033028702672545
0	A	786	ASN	0.20875282414776636
0	A	787	ARG	0.10501760284343882
0	A	788	THR	0.10222261156549792
0	A	789	GLU	0.12514854884382356
0	A	790	ALA	0.13889987491890698
0	A	791	ALA	0.3590349540950206
0	A	792	ASN	0.19125292244733824
0	A	793	VAL	0.03888808594806738
0	A	794	GLU	0.11168043562974404
0	A	795	LYS	0.10924562220147864
0	A	796	LEU	0.061941344576646414
0	A	797	VAL	0.05220813440228427
0	A	798	THR	0.24805269643217115
0	A	799	ALA	0.13282797539255564
0	A	800	PHE	0.08513273237195997
0	A	801	LEU	0.3864684176122766
0	A	802	LYS	0.24328534842429111
0	A	803	SER	0.11977659111381407
0	A	804	GLY	0.06416974731755364
0	A	805	VAL	0.30186241123184265
0	A	806	VAL	0.05936661876945807
0	A	807	PRO	0.16754316262194666
0	A	808	SER	0.04623750194549419
0	A	809	GLN	0.0690985690656436
0	A	810	ILE	0.42372883786987875
0	A	811	GLY	0.34470208375981015
0	A	812	VAL	0.09408771385836029
0	A	813	ILE	0.18424779820491705
0	A	814	THR	0.08888164913354941
0	A	815	PRO	0.13494170208355435
0	A	816	TYR	0.1011914419817048
0	A	817	GLU	0.16829608132647758
0	A	818	GLY	0.5328761236722623
0	A	819	GLN	0.06442035840789528
0	A	820	ARG	0.16732726989760396
0	A	821	ALA	0.04167835559025721
0	A	822	TYR	0.23435927048153618
0	A	823	ILE	0.19164234497690388
0	A	824	VAL	0.1616595703026928
0	A	825	ASN	0.5009836062752152
0	A	826	TYR	0.1550681202755998
0	A	827	MET	0.2173278263761032
0	A	828	ALA	0.3094977536740383
0	A	829	ARG	0.3805031851871789
0	A	830	ASN	0.0588583839130164
0	A	831	GLY	0.04474655823475391
0	A	832	SER	0.08868206892418254
0	A	833	LEU	0.1396393187417706
0	A	834	ARG	0.4814979349879524
0	A	835	GLN	0.04200826147476013
0	A	836	GLN	0.11180791204192686
0	A	837	LEU	0.059546110705867523
0	A	838	TYR	0.17440429635670096
0	A	839	LYS	0.34674539682865557
0	A	840	GLU	0.08743879788022124
0	A	841	ILE	0.05055683727377419
0	A	842	GLU	0.03583596322565237
0	A	843	VAL	0.29553644273412344
0	A	844	ALA	0.05473101525336834
0	A	845	SER	0.05165014792578561
0	A	846	VAL	0.20995683351119648
0	A	847	ASP	0.253528522395608
0	A	848	SER	0.09002011381941027
0	A	849	PHE	0.17602059988428737
0	A	850	GLN	0.21818037237029164
0	A	851	GLY	0.15709757080795433
0	A	852	ARG	0.17110133770414665
0	A	853	GLU	0.16878125459746507
0	A	854	LYS	0.11961965293503991
0	A	855	ASP	0.05224851640525558
0	A	856	TYR	0.06421598678490908
0	A	857	ILE	0.10198456049143995
0	A	858	ILE	0.18226798299617242
0	A	859	LEU	0.07252560827412627
0	A	860	SER	0.32585703532778654
0	A	861	CYS	0.11196828484243783
0	A	862	VAL	0.0548188423301964
0	A	863	ARG	0.20715291066612052
0	A	864	SER	0.365438143433595
0	A	865	ASN	0.16294863113441418
0	A	866	GLU	0.14028429883722665
0	A	867	HIS	0.3583653036465926
0	A	868	GLN	0.3911311608425645
0	A	869	GLY	0.2833517073320518
0	A	870	ILE	0.06630630687766062
0	A	871	GLY	0.09096303765916589
0	A	872	PHE	0.07817176201394341
0	A	873	LEU	0.08096244257024622
0	A	874	ASN	0.07840664982464104
0	A	875	ASP	0.06949308537959097
0	A	876	PRO	0.0959824543395242
0	A	877	ARG	0.04110123834821536
0	A	878	ARG	0.1030541389151524
0	A	879	LEU	0.05442134107410755
0	A	880	ASN	0.09277027669355353
0	A	881	VAL	0.10865883684813694
0	A	882	ALA	0.054790148120155736
0	A	883	LEU	0.10229835931802353
0	A	884	THR	0.06652069550128786
0	A	885	ARG	0.14237845671273153
0	A	886	ALA	0.049258057935625876
0	A	887	ARG	0.05290052468266295
0	A	888	TYR	0.03855531917096651
0	A	889	GLY	0.11647188801455367
0	A	890	ILE	0.156006400010569
0	A	891	VAL	0.20850607409946748
0	A	892	ILE	0.09351939638081348
0	A	893	LEU	0.2209870708239044
0	A	894	GLY	0.08262842794002138
0	A	895	ASN	0.055080203088795646
0	A	896	PRO	0.16758633186309943
0	A	897	LYS	0.11972669993802058
0	A	898	VAL	0.22783196957464757
0	A	899	LEU	0.04869412095758541
0	A	900	SER	0.06461248013845666
0	A	901	LYS	0.10189063948078536
0	A	902	GLN	0.07079346573216062
0	A	903	PRO	0.07667703479212508
0	A	904	LEU	0.06998546127720037
0	A	905	TRP	0.348365235768233
0	A	906	ASN	0.08125507544346287
0	A	907	GLY	0.05787774513547565
0	A	908	LEU	0.06579614537674582
0	A	909	LEU	0.34648960666987105
0	A	910	THR	0.6545604765927641
0	A	911	HIS	0.15632534689320962
0	A	912	TYR	0.07563012642249502
0	A	913	LYS	0.11198030214196851
0	A	914	GLU	0.2113238904934202
0	A	915	HIS	0.07840837876515416
0	A	916	GLU	0.27574722221381226
0	A	917	CYS	0.06448825227369537
0	A	918	LEU	0.060591266875695056
0	A	919	VAL	0.06630989656132688
0	A	920	GLU	0.1975872022644748
0	A	921	GLY	0.10906816932944116
0	A	922	PRO	0.1015506972129002
0	A	923	LEU	0.09835736734445154
0	A	924	ASN	0.3902643336446757
0	A	925	ASN	0.0891063261161942
0	A	926	LEU	0.18601424819876863
0	A	927	LYS	0.20831961212933023
0	A	928	GLN	0.30457162225042395
0	A	929	SER	0.16446916841438583
0	A	930	MET	0.08350657465875841
0	A	931	VAL	0.1762360739414206
0	A	932	GLN	0.0721483891184066
0	A	933	PHE	0.1407913048278776
0	A	934	GLN	0.15799142530014243
0	A	935	LYS	0.09598557883740218
0	A	936	PRO	0.07354395423635568
0	A	937	ARG	0.20982597674895212
0	A	938	LYS	0.43280073605106784
0	A	939	ILE	0.049374517197722824
0	A	940	TYR	0.1846724042862699
0	A	941	ASN	0.08807728863393072
0	A	942	ASP	0.08446792760882654
0	A	943	ARG	0.0986636301612649
0	A	944	ARG	0.11313890161936561
0	A	945	LEU	0.12341237469169279
0	A	946	PHE	0.13743185711443262
0	A	947	TYR	0.05636787999279691
0	A	948	GLY	0.17078201867287543
0	A	949	GLY	0.29866618170531367
0	A	950	GLY	0.055233136793242314
0	A	951	ALA	0.5384345976440844
0	A	952	GLY	0.11700647952244989
0	A	953	MET	0.32046881935447646
0	A	954	ILE	0.35797405138625965
0	A	955	GLY	0.057943053343602516
0	A	956	ASN	0.1569091550575063
0	A	957	ASP	0.2677470810764441
0	A	958	ASN	0.2579509196352824
0	A	959	PHE	0.3744233309838479
0	A	960	GLY	0.2995260931411499
0	A	961	SER	0.15892719303185493
0	A	962	GLY	0.09958634167851957
0	A	963	ASN	0.42490181934123034
0	A	964	PRO	0.18766954980160622
0	A	965	ASN	0.27519095304818203
0	A	966	ALA	0.2394656303857248
0	A	967	ASP	0.31456527056490524
0	A	968	ARG	0.1768027942810943
0	A	969	ARG	0.08426868078260795
0	A	970	GLY	0.06706892470587728
0	A	971	SER	0.10905485726279976
0	A	972	ARG	0.07962904177980486
0	A	973	GLY	0.30718878850769676
0	A	974	ARG	0.17161141392100027
0	A	975	ALA	0.2966626885399454
0	A	976	GLY	0.23532018925820192
0	A	977	GLY	0.26181726479602774
0	A	978	SER	0.14725445661456182
0	A	979	TYR	0.13400303469376154
0	A	980	LEU	0.10372331642469569
0	A	981	PRO	0.09213963207347312
0	A	982	SER	0.2506454249293661
0	A	983	GLY	0.2876660264069148
0	A	984	PRO	0.4128999019539544
0	A	985	PRO	0.28618003692481975
0	A	986	ASN	0.06878454539926235
0	A	987	GLY	0.17119663876597313
0	A	988	ALA	0.07853014889833403
0	A	989	ARG	0.1255676347204888
0	A	990	PRO	0.1845048598715229
0	A	991	GLY	0.3147328304858452
0	A	992	LEU	0.22643473754095714
0	A	993	HIS	0.06769870873224937
0	A	994	PRO	0.1395143078142657
0	A	995	ALA	0.0474066999057677
0	A	996	GLY	0.10001880164659797
0	A	997	TYR	0.1774170411021377
0	A	998	PRO	0.1646429618248888
0	A	999	ILE	0.06272690381732195
0	A	1000	PRO	0.04664848195979857
0	A	1001	ARG	0.10539119355000987
0	A	1002	VAL	0.09281135259865904
0	A	1003	PRO	0.07250010833983182
0	A	1004	LEU	0.0954555073847488
0	A	1005	SER	0.11317707786639081
0	A	1006	PRO	0.044886873774693366
0	A	1007	PHE	0.09707763348778523
0	A	1008	PRO	0.09452760904595477
0	A	1009	GLY	0.039802493899001166
0	A	1010	GLY	0.0512570814408784
0	A	1011	PRO	0.11848411891964523
0	A	1012	PRO	0.17173526188403446
0	A	1013	SER	0.06800231999006952
0	A	1014	GLN	0.1557633714485764
0	A	1015	PRO	0.10327279949493538
0	A	1016	TYR	0.03345107586211458
0	A	1017	ALA	0.07326540873942758
0	A	1018	ILE	0.12483958794943814
0	A	1019	PRO	0.09370206708677621
0	A	1020	THR	0.03276641154236965
0	A	1021	ARG	0.07933105151692647
0	A	1022	GLY	0.10692793480160673
0	A	1023	PRO	0.044237749649173354
0	A	1024	VAL	0.3800172521127372
0	A	1025	GLY	0.054181975850197676
0	A	1026	ALA	0.11431958191551328
0	A	1027	VAL	0.09352431959707282
0	A	1028	PRO	0.10442891022836517
0	A	1029	HIS	0.2286213278325941
0	A	1030	ALA	0.2664488715908864
0	A	1031	PRO	0.21307270994589583
0	A	1032	GLN	0.08250057937920793
0	A	1033	PRO	0.1225390426458645
0	A	1034	GLY	0.3746815090963456
0	A	1035	ASN	0.09492572279666486
0	A	1036	HIS	0.1007015005563874
0	A	1037	GLY	0.3168744838303339
0	A	1038	PHE	0.20008847523569306
0	A	1039	GLY	0.14780705081246462
0	A	1040	ALA	0.11906472505509923
0	A	1041	GLY	0.28852100687339527
0	A	1042	ARG	0.12860424349686453
0	A	1043	GLY	0.20760818799711425
0	A	1044	THR	0.06805658391227287
0	A	1045	SER	0.09979734219898881
0	A	1046	VAL	0.07286340293428883
0	A	1047	GLY	0.13932215507131843
0	A	1048	GLY	0.10026403984108494
0	A	1049	HIS	0.159891275071881
0	A	1050	LEU	0.1254501598027541
0	A	1051	PRO	0.10787699909376769
0	A	1052	HIS	0.0558515082616085
0	A	1053	GLN	0.11014708248130518
0	A	1054	GLN	0.14083816454295076
0	A	1055	ALA	0.24694040619999774
0	A	1056	THR	0.1731059473154068
0	A	1057	GLN	0.30706672375685096
0	A	1058	HIS	0.11729667017027803
0	A	1059	ASN	0.13278857415628798
0	A	1060	VAL	0.12719677737583185
0	A	1061	GLY	0.22436058265434847
0	A	1062	THR	0.16803667822473736
0	A	1063	ILE	0.114234251335749
0	A	1064	GLY	0.23151313977926988
0	A	1065	PRO	0.07294395760662671
0	A	1066	SER	0.07358008366591243
0	A	1067	LEU	0.39521235981272534
0	A	1068	ASN	0.39922520748439433
0	A	1069	PHE	0.09130421266939
0	A	1070	PRO	0.1924262605611275
0	A	1071	LEU	0.15464985622716051
0	A	1072	ASP	0.16806158117060352
0	A	1073	SER	0.11986501517907042
0	A	1074	PRO	0.22099345937539683
0	A	1075	ASN	0.1626021142407213
0	A	1076	SER	0.04652557212143742
0	A	1077	GLN	0.12261540289301134
0	A	1078	PRO	0.1713266736999915
0	A	1079	SER	0.051642123470937704
0	A	1080	PRO	0.1906675636637473
0	A	1081	GLY	0.1327461957309753
0	A	1082	GLY	0.23733210228633814
0	A	1083	PRO	0.23021375182304857
0	A	1084	LEU	0.24572698457745135
0	A	1085	SER	0.13779467101690843
0	A	1086	GLN	0.23681318753950711
0	A	1087	PRO	0.027468201265996146
0	A	1088	GLY	0.14160908593748828
0	A	1089	TYR	0.09788821197077398
0	A	1090	GLY	0.026040520884188397
0	A	1091	SER	0.29101272802976075
0	A	1092	GLN	0.1814902853953189
0	A	1093	ALA	0.16067506660656106
0	A	1094	PHE	0.08625638089046399
0	A	1095	ARG	0.12333044772127946
0	A	1096	ASP	0.24498102815355174
0	A	1097	GLY	0.12111985384296706
0	A	1098	PHE	0.1686673150917213
0	A	1099	SER	0.3562776428659307
0	A	1100	MET	0.1728750601024884
0	A	1101	GLY	0.3028633049739149
0	A	1102	GLY	0.1151621341683501
0	A	1103	ILE	0.10374653694862754
0	A	1104	SER	0.08248769373287247
0	A	1105	GLN	0.07240465996917236
0	A	1106	ASP	0.23165233887331746
0	A	1107	PHE	0.0554351631045459
0	A	1108	LEU	0.09735875301274184
0	A	1109	ALA	0.19316219998438605
0	A	1110	ASP	0.07336698205629943
0	A	1111	ASP	0.051105570429634234
0	A	1112	ILE	0.06249109338814421
0	A	1113	LYS	0.05743400441203135
0	A	1114	SER	0.04221672285613499
0	A	1115	GLN	0.05585822631970097
0	A	1116	GLY	0.06538918534296184
0	A	1117	SER	0.04438190684841439
0	A	1118	HIS	0.03265837214304065
0	A	1119	ASP	0.0685096748700617
0	A	1120	PRO	0.08672827310719596
0	A	1121	TYR	0.10765895100860594
0	A	1122	ASN	0.049885771885240106
0	A	1123	MET	0.08401951176820999
0	A	1124	ALA	0.042258895824391185
0	A	1125	ASP	0.2910273658758988
0	A	1126	PHE	0.15453424205257896
0	A	1127	ALA	0.30960009454746085
0	A	1128	THR	0.07029619763067775
0	A	1129	GLN	0.09702160961268286
0	A	1130	ALA	0.03029123937042236
0	A	1131	SER	0.06445255701754102
0	A	1132	PRO	0.22453574060983042
0	A	1133	GLY	0.07364030971930229
0	A	1134	GLY	0.061100327436910934
0	A	1135	PHE	0.0446447949670185
0	A	1136	ALA	0.2325804775581021
0	A	1137	VAL	0.05220413768105327
0	A	1138	ASP	0.08351895635382324
0	A	1139	TYR	0.11313655243113478
0	A	1140	ALA	0.2819155857664608
0	A	1141	THR	0.0223322729901397
0	A	1142	GLN	0.06097888293378287
0	A	1143	GLY	0.14587361462681192
0	A	1144	ALA	0.060777201635272254
0	A	1145	HIS	0.07468483013521916
0	A	1146	GLY	0.3483196475609811
0	A	1147	ALA	0.06190033844940916
0	A	1148	PHE	0.132476512023314
0	A	1149	PRO	0.13188256280883273
0	A	1150	GLY	0.07238119909924991
0	A	1151	ASN	0.14052450527210367
0	A	1152	PHE	0.16518253082071965
0	A	1153	MET	0.25738562586535946
0	A	1154	ASN	0.0797587045651926
0	A	1155	GLN	0.1732313148853494
0	A	1156	ASN	0.08026778063260143
0	A	1157	SER	0.21989560540885317
0	A	1158	GLN	0.24015257023928407
0	A	1159	GLY	0.1900238395699196
0	A	1160	GLY	0.07925359808317715
0	A	1161	TYR	0.18860142547889006
0	A	1162	SER	0.12549712806117785
0	A	1163	ARG	0.0687640074467096
0	A	1164	PHE	0.12627350763563125
0	A	1165	SER	0.26067923428356926
0	A	1166	GLY	0.03667597246284657
0	A	1167	ILE	0.1478284183463398
0	A	1168	ASN	0.22367224724342435
0	A	1169	ASP	0.09059465703342362
0	A	1170	PHE	0.2182695329797128
0	A	1171	MET	0.13184593718110182
0	A	1172	SER	0.2022483638630825
0	A	1173	GLN	0.1121948380744287
0	A	1174	GLU	0.12074497612238176
0	A	1175	TYR	0.11607261129937288
0	A	1176	MET	0.07811557532381515
0	A	1177	ALA	0.24662645231148472
0	A	1178	HIS	0.07127622003704902
0	A	1179	GLY	0.07767396670190048
0	A	1180	GLY	0.17237417905804986
0	A	1181	GLN	0.08772421262062301
0	A	1182	GLY	0.10017538318293444
0	A	1183	LEU	0.2233008584162512
0	A	1184	PHE	0.16566396709920791
0	A	1185	THR	0.08519980440953408
0	A	1186	GLN	0.05046207117560423
0	A	1187	ALA	0.18223701712886564
0	A	1188	GLY	0.14683820837120512
0	A	1189	PHE	0.05603446195559244
0	A	1190	ILE	0.15002747561710278
0	A	1191	ASP	0.19235124159967018
0	A	1192	SER	0.2484728367299565
0	A	1193	SER	0.08267212439173421
0	A	1194	GLN	0.22995760502182636
0	A	1195	ASP	0.3556188777649485
0	A	1196	ASP	0.10849062566709337
0	A	1197	GLY	0.22597941369138455
0	A	1198	GLN	0.24599429583759239
0	A	1199	GLN	0.28344676029479116
0	A	1200	ASN	0.052183126789615765
0	A	1201	PRO	0.30522154882142877
0	A	1202	TYR	0.08972433318902624
0	A	1203	GLY	0.17593202851019804
0	A	1204	VAL	0.22783555150521737
0	A	1205	ASN	0.0
0	A	1206	ASN	0.08554815103399423
0	A	1207	PRO	0.16046112766252915
0	A	1208	ASN	0.0930891770576153
0	A	1209	LEU	0.4062738265980201
0	A	1210	GLN	0.12665058723561443
0	A	1211	SER	0.09850504832603883
0	A	1212	GLN	0.17469846434301894
0	A	1213	GLY	0.11369448075940991
0	A	1214	LEU	0.1372506207313171
0	A	1215	PRO	0.15126711821191546
0	A	1216	ASN	0.11517805127540588
0	A	1217	SER	0.3393753343353254
0	A	1218	LEU	0.3641296998606951
0	A	1219	TYR	0.1220141037430752
0	A	1220	SER	0.12449758335789159
0	A	1221	GLN	0.13484055518698843
0	A	1222	PRO	0.08464750482929718
0	A	1223	PHE	0.17493910495129836
0	A	1224	ALA	0.1519352490534351
0	A	1225	HIS	0.1454984422885607
0	A	1226	TYR	0.159692547703126
0	A	1227	ASN	0.11089805515862178
0	A	1228	THR	0.13824932810018445
0	A	1229	GLN	0.2661167289380515
0	A	1230	PRO	0.23193433449817535
0	A	1231	LEU	0.14372785214119338
0	A	1232	ASN	0.193458275232436
0	A	1233	LEU	0.22007397314627428
0	A	1234	SER	0.14310450318489257
0	A	1235	GLY	0.22671704328967388
0	A	1236	PRO	0.4356924239482001
0	A	1237	GLN	0.1827877815960012
0	A	1238	GLN	0.12126877531998977
0	A	1239	SER	0.1443234450121266
0	A	1240	GLN	0.31292217233591363
0	A	1241	PRO	0.07628723236083233
0	A	1242	ASN	0.07935335717547469
0	A	1243	GLN	0.1836671533039807
0	A	1244	SER	0.1720431838634927
0	A	1245	SER	0.22443110481985237
0	A	1246	GLN	0.14049298118185094
0	A	1247	ASN	0.3417201498197508
0	A	1248	PRO	0.2491483020007381
0	A	1249	LYS	0.03391604456369758
0	A	1250	HIS	0.3277437668602955
0	A	1251	PRO	0.14998287980619926
0	A	1252	TYR	0.061997508007485255
0	A	1253	ASN	0.2279789062589736
0	A	1254	GLY	0.1080488309708634
